id,sname,lat,lon,geometry,old_id
3,Colleges of the Fenway - Fenway at Avenue Louis Pasteur,42.340115122492364,-71.10061883926393,POINT (-71.10061883926393 42.34011512249236),B32006
4,Tremont St at E Berkeley St,42.345392,-71.069616,POINT (-71.069616 42.345392),C32000
4,Tremont St at E Berkeley St,42.345392,-71.069616,POINT (-71.069616 42.345392),A32012
5,Northeastern University - North Parking Lot,42.341814,-71.090179,POINT (-71.09017900000001 42.341814),B32012
6,Cambridge St at Joy St,42.361199417496216,-71.06519486764228,POINT (-71.06519486764228 42.36119941749622),D32000
7,Fan Pier,42.35294080239233,-71.04388475418091,POINT (-71.04388475418091 42.35294080239233),A32000
8,Union Square - Brighton Ave at Cambridge St,42.353334,-71.137313,POINT (-71.13731300000001 42.353334),A32001
9,Commonwealth Ave at Buick St,42.35062177153799,-71.11288218766276,POINT (-71.11288218766276 42.35062177153799),A32002
10,B.U. Central - 725 Comm. Ave.,42.350406,-71.10827900000002,POINT (-71.10827900000002 42.350406),A32003
11,Longwood Ave at Binney St,42.338629,-71.1065,POINT (-71.1065 42.338629),A32004
12,Ruggles T Stop - Columbus Ave at Melnea Cass Blvd,42.33624444796878,-71.08798563480376,POINT (-71.08798563480376 42.33624444796878),B32002
13,Boston Medical Center - E Concord St at Harrison Ave,42.336437,-71.073089,POINT (-71.073089 42.336437),C32002
14,HMS/HSPH - Avenue Louis Pasteur at Longwood Ave,42.337417484597296,-71.10286116600038,POINT (-71.10286116600038 42.3374174845973),B32003
15,Brighton Mills - 370 Western Ave,42.3615457081725,-71.13776206970216,POINT (-71.13776206970216 42.3615457081725),A32005
16,Back Bay T Stop - Dartmouth St at Stuart St,42.34807412317439,-71.07657015323639,POINT (-71.07657015323639 42.34807412317439),C32003
17,Soldiers Field Park - 111 Western Ave,42.365064,-71.119233,POINT (-71.11923299999999 42.365064),A32006
19,Park Dr at Buswell St,42.347241,-71.105301,POINT (-71.105301 42.347241),A32008
20,Aquarium T Stop - 200 Atlantic Ave,42.35991176110118,-71.0514298081398,POINT (-71.0514298081398 42.35991176110118),B32004
21,Prudential Center - Belvedere St,42.345959,-71.082578,POINT (-71.082578 42.345959),C32007
22,South Station - 700 Atlantic Ave,42.352175,-71.055547,POINT (-71.055547 42.352175),A32010
23,Boston City Hall - 28 State St,42.35892,-71.057629,POINT (-71.05762900000001 42.35892),B32008
24,Seaport Square - Seaport Blvd at Northern Ave,42.35148193460858,-71.04436084628105,POINT (-71.04436084628105 42.35148193460858),B32007
25,South End Library - Tremont St at W Newton St,42.341332,-71.076847,POINT (-71.076847 42.341332),A32009
26,Washington St at Waltham St,42.341522,-71.068922,POINT (-71.068922 42.341522),D32002
27,Roxbury Crossing T Stop - Columbus Ave at Tremont St,42.331184,-71.095171,POINT (-71.09517099999999 42.331184),C32001
29,Innovation Lab - 125 Western Ave at Batten Way,42.363732,-71.124565,POINT (-71.124565 42.363732),A32011
30,Brigham Circle - Francis St at Huntington Ave,42.33462893055976,-71.10407917767589,POINT (-71.10407917767589 42.33462893055976),B32013
31,Seaport Hotel - Congress St at Seaport Ln,42.34881026188269,-71.04167744055303,POINT (-71.04167744055303 42.34881026188269),B32014
32,Landmark Center - Brookline Ave at Park Dr,42.34519428944096,-71.1016970872879,POINT (-71.1016970872879 42.34519428944096),B32015
33,Kenmore Square,42.348706,-71.097009,POINT (-71.097009 42.348706),B32010
35,Arch St at Franklin St,42.35581929709065,-71.05887290099417,POINT (-71.05887290099417 42.35581929709065),D32004
36,Copley Square - Dartmouth St at Boylston St,42.34976701008725,-71.0773265361786,POINT (-71.0773265361786 42.34976701008725),D32005
37,New Balance - 20 Guest St,42.357329218677066,-71.14673539996147,POINT (-71.14673539996147 42.35732921867707),D32001
38,TD Garden - Causeway at Portal Park #2,42.366222,-71.059914,POINT (-71.05991400000001 42.366222),D32003
39,Washington St at Rutland St,42.338514601785995,-71.07404083013535,POINT (-71.07404083013535 42.338514601786),C32006
40,Lewis Wharf at Atlantic Ave,42.363871,-71.050877,POINT (-71.050877 42.363871),D32006
42,Boylston St at Arlington St,42.352583438376996,-71.06766249993595,POINT (-71.06766249993595 42.352583438377),D32007
43,Rowes Wharf at Atlantic Ave,42.357143,-71.050699,POINT (-71.05069899999999 42.357143),D32008
44,Congress St at North St,42.360613,-71.057452,POINT (-71.057452 42.360613),D32009
45,Yawkey Way at Boylston St.,42.3446808403874,-71.09785348176956,POINT (-71.09785348176956 42.3446808403874),B32011
46,Christian Science Plaza - Massachusetts Ave at Westland Ave,42.3436658245146,-71.08582377433777,POINT (-71.08582377433777 42.3436658245146),B32005
47,Cross St at Hanover St,42.362811,-71.056067,POINT (-71.056067 42.362811),D32010
48,Post Office Square - Pearl St at Milk St,42.356755,-71.05540699999997,POINT (-71.05540699999997 42.356755),D32012
49,Stuart St at Charles St,42.351146,-71.066289,POINT (-71.066289 42.351146),D32011
50,Boylston St at Berkeley St,42.351141982547496,-71.07329249382019,POINT (-71.07329249382019 42.3511419825475),D32013
51,Washington St at Lenox St,42.3350989929096,-71.07903778553009,POINT (-71.07903778553009 42.3350989929096),C32005
52,Newbury St at Hereford St,42.348717,-71.085954,POINT (-71.085954 42.348717),B32000
53,Beacon St at Massachusetts Ave,42.35082680669096,-71.0898108780384,POINT (-71.08981087803841 42.35082680669096),B32016
54,Tremont St at West St,42.354979,-71.063348,POINT (-71.063348 42.354979),D32014
55,Boylston St at Massachusetts Ave,42.347265,-71.088088,POINT (-71.088088 42.347265),B32018
56,Dudley Square - Dudley St at Warren St,42.32854046293402,-71.08416482806204,POINT (-71.08416482806204 42.32854046293402),B32017
57,Columbus Ave at Massachusetts Ave,42.340542615516355,-71.08138847914233,POINT (-71.08138847914233 42.34054261551636),C32004
58,Beacon St at Arlington St,42.35554932336135,-71.07284188270569,POINT (-71.07284188270569 42.35554932336135),D32017
59,Chinatown Gate Plaza,42.351356,-71.05936700000002,POINT (-71.05936700000002 42.351356),D32015
60,Charles Circle - Charles St at Cambridge St,42.36075761041193,-71.07132909824031,POINT (-71.07132909824031 42.36075761041193),D32016
61,Boylston St at Fairfield St,42.348762,-71.082383,POINT (-71.08238299999999 42.348762),C32008
63,Dorchester Ave at Gillette Park,42.34404051001636,-71.0573762655258,POINT (-71.0573762655258 42.34404051001636),C32009
64,Congress St at Sleeper St,42.351004495946704,-71.04930013418199,POINT (-71.04930013418199 42.3510044959467),C32010
65,Boston Convention and Exhibition Center - Summer St at West Side Dr,42.347763454147454,-71.04535996913908,POINT (-71.04535996913908 42.34776345414745),D32018
66,Allston Green District - Griggs St at Commonwealth Ave,42.34922469338298,-71.13275302578586,POINT (-71.13275302578586 42.34922469338298),A32017
67,MIT at Mass Ave / Amherst St,42.3581,-71.093198,POINT (-71.093198 42.3581),M32006
68,Central Square at Mass Ave / Essex St,42.36507,-71.1031,POINT (-71.1031 42.36507),M32011
69,Coolidge Corner - Beacon St @ Centre St,42.341598,-71.123338,POINT (-71.123338 42.341598),K32001
70,Harvard Kennedy School at Bennett St / Eliot St,42.371991654086756,-71.12226963043213,POINT (-71.12226963043213 42.37199165408676),M32016
71,Conway Park - Somerville Avenue,42.383405,-71.10759300000002,POINT (-71.10759300000002 42.383405),S32004
72,One Broadway / Kendall Sq at Main St / 3rd St,42.362613,-71.08410500000002,POINT (-71.08410500000002 42.362613),M32003
73,Harvard Square at Brattle St / Eliot St,42.373231,-71.120886,POINT (-71.120886 42.373231),M32017
74,Harvard Square at Mass Ave/ Dunster,42.373268,-71.118579,POINT (-71.118579 42.373268),M32018
75,Lafayette Square at Mass Ave / Main St / Columbia St,42.36346469304347,-71.10057324171065,POINT (-71.10057324171065 42.36346469304347),M32009
76,Central Sq Post Office / Cambridge City Hall at Mass Ave / Pleasant St,42.366426,-71.10549499999998,POINT (-71.10549499999998 42.366426),M32012
77,Somerville City Hall,42.386844,-71.09812,POINT (-71.09811999999999 42.386844),S32001
78,Union Square - Somerville,42.379637,-71.09531899999998,POINT (-71.09531899999998 42.379637),S32002
79,Beacon St at Washington / Kirkland,42.37842,-71.10566800000002,POINT (-71.10566800000002 42.37842),S32003
80,MIT Stata Center at Vassar St / Main St,42.3621312344991,-71.09115600585936,POINT (-71.09115600585936 42.3621312344991),M32005
81,Boylston St at Washington St,42.352409,-71.062679,POINT (-71.062679 42.352409),D32019
82,Washington Square at Washington St. / Beacon St.,42.339335,-71.13493000000003,POINT (-71.13493000000003 42.339335),K32002
84,CambridgeSide Galleria - CambridgeSide PL at Land Blvd,42.366981,-71.076472,POINT (-71.076472 42.366981),M32019
85,Spaulding Rehabilitation Hospital - Charlestown Navy Yard,42.378338,-71.048927,POINT (-71.04892700000001 42.378338),D32023
87,Harvard University Housing - 115 Putnam Ave at Peabody Terrace,42.366621,-71.114214,POINT (-71.114214 42.366621),M32014
88,Inman Square at Vellucci Plaza / Hampshire St,42.374035,-71.101427,POINT (-71.101427 42.374035),M32010
89,Harvard Law School at Mass Ave / Jarvis St,42.379011,-71.119945,POINT (-71.119945 42.379011),M32020
90,Lechmere Station at Cambridge St / First St,42.370677,-71.07652900000002,POINT (-71.07652900000002 42.370677),M32001
91,One Kendall Square at Hampshire St / Portland St,42.366277,-71.09169,POINT (-71.09169 42.366277),M32002
92,University of Massachusetts Boston - Integrated Sciences Complex,42.314507,-71.041269,POINT (-71.041269 42.314507),C32014
93,JFK/UMass T Stop,42.320339735157226,-71.05118036270143,POINT (-71.05118036270143 42.32033973515723),C32013
94,Main St at Austin St,42.37560300000001,-71.06460799999998,POINT (-71.06460799999998 42.37560300000001),D32020
95,Cambridge St - at Columbia St / Webster Ave,42.372969,-71.094445,POINT (-71.09444499999999 42.372969),M32007
96,Cambridge Main Library at Broadway / Trowbridge St,42.373379,-71.111075,POINT (-71.111075 42.373379),M32013
97,Harvard University River Houses at DeWolfe St / Cowperthwaite St,42.36919031768079,-71.11714124679565,POINT (-71.11714124679565 42.36919031768079),M32038
98,Warren St at Chelsea St,42.371848,-71.060292,POINT (-71.060292 42.371848),D32021
99,Wilson Square,42.385582,-71.113341,POINT (-71.11334100000001 42.385582),S32005
100,Davis Square,42.396969,-71.123024,POINT (-71.123024 42.396969),S32006
102,Powder House Circle - Nathan Tufts Park,42.400877,-71.116772,POINT (-71.116772 42.400877),S32008
103,JFK Crossing at Harvard St. / Thorndike St.,42.346563,-71.128374,POINT (-71.12837399999999 42.346563),K32004
104,Harvard University Radcliffe Quadrangle at Shepard St / Garden St,42.380287,-71.125107,POINT (-71.125107 42.380287),M32024
105,Lower Cambridgeport at Magazine St / Riverside Rd,42.35721850317653,-71.1138716340065,POINT (-71.1138716340065 42.35721850317653),M32022
106,Mt Pleasant Ave / Dudley Town Common,42.325333,-71.075354,POINT (-71.075354 42.325333),C32015
107,Ames St at Main St,42.3625,-71.08821999999998,POINT (-71.08821999999998 42.3625),M32037
108,Harvard University / SEAS Cruft-Pierce Halls at 29 Oxford St,42.377945,-71.116865,POINT (-71.116865 42.377945),M32023
109,TD Garden - West End Park,42.36590788445085,-71.06446668505669,POINT (-71.06446668505669 42.36590788445085),D32022
110,Harvard University Gund Hall at Quincy St / Kirkland S,42.376369,-71.114025,POINT (-71.114025 42.376369),M32021
111,Packard Ave / Powderhouse Blvd,42.40449,-71.123413,POINT (-71.123413 42.40449),S32009
112,Clarendon Hill at Broadway,42.406302,-71.132446,POINT (-71.132446 42.406302),S32010
113,Andrew T Stop - Dorchester Ave at Dexter St,42.33047365041517,-71.05701684951781,POINT (-71.05701684951781 42.33047365041517),C32012
114,Teele Square at 239 Holland St,42.402763,-71.126908,POINT (-71.126908 42.402763),S32011
115,Porter Square Station,42.387995,-71.119084,POINT (-71.119084 42.387995),M32029
116,359 Broadway - Broadway at Fayette Street,42.370803,-71.104412,POINT (-71.104412 42.370803),M32026
117,Binney St / Sixth St,42.366095,-71.086388,POINT (-71.086388 42.366095),M32027
118,Linear Park - Mass. Ave. at Cameron Ave. ,42.397828,-71.130516,POINT (-71.130516 42.397828),M32025
119,South Boston Library - 646 E Broadway,42.335741,-71.03877,POINT (-71.03877 42.335741),C32017
120,Charles St and Beacon St,42.35605200000001,-71.069849,POINT (-71.069849 42.35605200000001),D32024
121,W Broadway at Dorchester St,42.335693,-71.045859,POINT (-71.04585899999999 42.335693),C32016
122,Burlington Ave at Brookline Ave,42.345733,-71.10069399999998,POINT (-71.10069399999998 42.345733),B32020
123,JP Center - Centre Street at Myrtle Street,42.313156,-71.11414,POINT (-71.11414000000001 42.313156),E32002
124,Curtis Hall - South St at Centre St,42.309054,-71.11543,POINT (-71.11543 42.309054),E32001
125,Hyde Square - Barbara St at Centre St,42.32176525723952,-71.10984160567114,POINT (-71.10984160567114 42.32176525723952),E32003
126,Egleston Square - Atherton St at Washington St,42.315692,-71.09863399999998,POINT (-71.09863399999998 42.315692),E32004
128,E Cottage St at Columbia Rd,42.320561,-71.06198,POINT (-71.06198000000001 42.320561),C32018
129,Hayes Square - Vine St at Moulton St,42.377022,-71.056605,POINT (-71.056605 42.377022),D32026
130,Upham&#8217;s Corner,42.31750891943043,-71.06416625906604,POINT (-71.06416625906604 42.31750891943043),C32019
131,Jackson Square T Stop,42.32293117195949,-71.10014140605927,POINT (-71.10014140605927 42.32293117195949),E32006
133,Green Street T Stop - Green St at Amory St,42.310579,-71.107341,POINT (-71.10734100000001 42.310579),E32005
134,Boylston St at Dartmouth St,42.350413,-71.07655,POINT (-71.07655 42.350413),D32027
135,ID Building East,42.344827,-71.028664,POINT (-71.02866400000001 42.344827),C32020
136,ID Building West,42.344796,-71.031614,POINT (-71.031614 42.344796),C32021
137,Magoun Square at Trum Field,42.39836500000001,-71.10781800000002,POINT (-71.10781800000002 42.39836500000001),S32013
138,Newmarket Square T Stop - Massachusetts Ave at Newmarket Square,42.326599,-71.066498,POINT (-71.066498 42.326599),C32022
139,Dana Park,42.361780439606044,-71.10809952020645,POINT (-71.10809952020645 42.36178043960604),M32030
140,Danehy Park,42.388966,-71.132788,POINT (-71.13278800000001 42.388966),M32031
141,Kendall Street,42.36356015842989,-71.08216792345047,POINT (-71.08216792345047 42.36356015842989),M32032
142,Alewife Station at Russell Field,42.396105,-71.139459,POINT (-71.139459 42.396105),M32033
143,EF - North Point Park,42.369885,-71.06995699999997,POINT (-71.06995699999997 42.369885),M32034
145,Rindge Avenue - O&#8217;Neill Library,42.392766,-71.129042,POINT (-71.129042 42.392766),M32036
146,Murphy Skating Rink - 1880 Day Blvd,42.336448,-71.023739,POINT (-71.02373900000001 42.336448),C32023
149,175 N Harvard St,42.363796,-71.129164,POINT (-71.129164 42.363796),A32019
150,State Street at Channel Center,42.344137,-71.05260799999998,POINT (-71.05260799999998 42.344137),C32024
151,Surface Rd at India St,42.358155,-71.05216300000002,POINT (-71.05216300000002 42.358155),A32013
152,Ink Block - Harrison Ave at Herald St,42.345901,-71.063187,POINT (-71.063187 42.345901),C32025
159,S Huntington Ave at Heath St,42.3279727,-71.11089709999997,POINT (-71.11089709999997 42.3279727),E32007
160,Wentworth Institute of Technology - Huntington Ave at Vancouver St,42.33758601097239,-71.09627097845076,POINT (-71.09627097845076 42.33758601097239),B32021
161,W Broadway at D St,42.3391085,-71.05144320000002,POINT (-71.05144320000002 42.3391085),C32029
162,Franklin Park - Seaver St at Humbolt Ave,42.309796,-71.092225,POINT (-71.092225 42.309796),C32027
163,The Lawn on D,42.344792,-71.044024,POINT (-71.04402399999999 42.344792),C32028
167,Ryan Playground - Dorchester Ave at Harbor View St,42.317642,-71.056664,POINT (-71.056664 42.317642),C32031
169,Edwards Playground - Main St at Eden St,42.378965,-71.068607,POINT (-71.068607 42.378965),A32022
170,Franklin Park Zoo - Franklin Park Rd at Blue Hill Ave,42.303469,-71.085347,POINT (-71.085347 42.303469),C32030
171,Bunker Hill Community College,42.37408991426522,-71.06905996799469,POINT (-71.06905996799469 42.37408991426522),A32023
173,Savin Hill T Stop - S Sydney St at Bay St,42.3106,-71.0539,POINT (-71.0539 42.3106),C32033
174,Washington St at Brock St,42.348952846695106,-71.16031676530837,POINT (-71.16031676530837 42.34895284669511),D32029
175,Brighton Center - Washington St at Cambridge St,42.34894857235593,-71.15027189254761,POINT (-71.15027189254761 42.34894857235593),D32028
176,Lesley University,42.38674802045056,-71.11901879310608,POINT (-71.11901879310608 42.38674802045056),M32039
177,University Park,42.36264779118595,-71.1000609397888,POINT (-71.1000609397888 42.36264779118595),M32040
178,MIT Pacific St at Purrington St,42.359573201090434,-71.10129475593567,POINT (-71.10129475593567 42.35957320109043),M32041
179,MIT Vassar St,42.35560121327927,-71.10394477844237,POINT (-71.10394477844237 42.35560121327927),M32042
180,Mt Auburn,42.37478628706384,-71.13320231437683,POINT (-71.13320231437683 42.37478628706384),M32043
182,Museum of Science,42.36769018024484,-71.07116281986238,POINT (-71.07116281986238 42.36769018024484),M32045
183,Alewife MBTA at Steel Place,42.395588457167094,-71.14260613918304,POINT (-71.14260613918304 42.39558845716709),M32046
184,Sidney Research Campus/ Erie Street at Waverly,42.35775309465199,-71.10393404960631,POINT (-71.10393404960631 42.35775309465199),M32047
185,Third at Binney,42.365444861374,-71.08277142047879,POINT (-71.08277142047879 42.365444861374),M32048
186,Congress St at Northern Ave,42.3481,-71.03764,POINT (-71.03764 42.3481),C32032
189,Kendall T,42.362427842912396,-71.08495473861693,POINT (-71.08495473861693 42.3624278429124),M32004
190,Nashua Street at Red Auerbach Way,42.365673,-71.064263,POINT (-71.064263 42.365673),A32025
192,Purchase St at Pearl St,42.35465900000001,-71.05318100000002,POINT (-71.05318100000002 42.35465900000001),A32026
193,Brookline Village - Station Street @ MBTA,42.33289074055233,-71.11658334732057,POINT (-71.11658334732057 42.33289074055233),K32005
194,Broadway St at Mt Pleasant St,42.38614141163957,-71.07828140258789,POINT (-71.07828140258789 42.38614141163957),S32014
195,Brian P. Murphy Staircase at Child Street,42.3720597013741,-71.07202649116515,POINT (-71.07202649116515 42.3720597013741),M32049
196,Roxbury YMCA - Warren St at MLK Blvd,42.31787329345602,-71.08243077993394,POINT (-71.08243077993394 42.31787329345602),B32022
197,MLK Blvd at Washington St,42.32143814183195,-71.09126061201096,POINT (-71.09126061201096 42.32143814183195),B32023
199,Upham&#8217;s Corner T Stop - Magnolia St at Dudley St,42.318697341722434,-71.06978148221971,POINT (-71.06978148221971 42.31869734172243),B32025
200,Washington St at Melnea Cass Blvd,42.332817,-71.081198,POINT (-71.081198 42.332817),B32026
201,NCAAA - Walnut Ave at Crawford St,42.316902,-71.091946,POINT (-71.09194599999999 42.316902),B32027
202,Grove Hall Library - 41 Geneva Ave,42.30791,-71.080952,POINT (-71.080952 42.30791),B32028
203,Columbia Rd at Ceylon St,42.309572,-71.0729,POINT (-71.0729 42.309572),B32029
204,Walnut Ave at Warren St,42.324081,-71.083235,POINT (-71.083235 42.324081),B32030
205,Bowdoin St at Quincy St,42.30785224238503,-71.06512248516083,POINT (-71.06512248516083 42.30785224238503),B32031
207,Faneuil St at Market St,42.35484,-71.150226,POINT (-71.150226 42.35484),D32030
208,Oak Square - 615 Washington St,42.35057000000001,-71.16649100000002,POINT (-71.16649100000002 42.35057000000001),D32031
209,Chelsea St at Saratoga St,42.379772,-71.02744799999998,POINT (-71.02744799999998 42.379772),A32027
210,Bennington St at Byron St,42.38337841883669,-71.01612031481636,POINT (-71.01612031481636 42.38337841883669),A32028
211,Piers Park,42.36543154627481,-71.03625655174254,POINT (-71.03625655174254 42.36543154627481),A32029
212,Maverick Square - Lewis Mall,42.368844082898356,-71.03977829217911,POINT (-71.03977829217911 42.36884408289836),A32030
213,East Boston Neighborhood Health Center - 20 Maverick Square,42.369536,-71.03943100000002,POINT (-71.03943100000002 42.369536),A32031
214,Airport T Stop - Bremen St at Brooks St,42.375339,-71.031304,POINT (-71.03130400000001 42.375339),A32032
215,The Eddy - New St at Sumner St,42.370744,-71.044201,POINT (-71.044201 42.370744),A32033
216,Glendon St at Condor St,42.38240377674137,-71.03024303913115,POINT (-71.03024303913115 42.38240377674137),A32034
217,Orient Heights T Stop - Bennington St at Saratoga St,42.386781,-71.006098,POINT (-71.00609799999999 42.386781),A32035
218,Watermark Seaport - Boston Wharf Rd at Seaport Blvd,42.351586001198456,-71.04569256305693,POINT (-71.04569256305693 42.35158600119846),C32034
219,Central Square - East Boston,42.37430732260765,-71.03807777166365,POINT (-71.03807777166365 42.37430732260765),A32036
221,Verizon Innovation Hub 10 Ware Street,42.37250864997261,-71.11305356025694,POINT (-71.11305356025694 42.37250864997261),M32050
224,Fresh Pond Reservation,42.38267827521855,-71.143478951426,POINT (-71.143478951426 42.38267827521855),M32051
225,Cambridge Dept. of Public Works -147 Hampshire St.,42.37119727759414,-71.09759867191316,POINT (-71.09759867191316 42.37119727759414),M32052
226,Commonwealth Ave At Babcock St,42.35154734791375,-71.12126246094705,POINT (-71.12126246094705 42.35154734791375),K32006
227,Silber Way,42.349495995140025,-71.10057592391969,POINT (-71.10057592391969 42.34949599514002),Silber Way
