{
"type": "FeatureCollection",
"crs": { "type": "name", "properties": { "name": "urn:ogc:def:crs:OGC:1.3:CRS84" } },
"features": [
{ "type": "Feature", "properties": { "school_id": 130012002798, "school_name": "APS-FORREST HILLS ACADEMY", "state": "GEORGIA", "state_code": 13, "city": "ATLANTA", "address": "2930 Forrest Hills Dr SW", "school_type": "4-Alternative\/other school", "total_students": 129, "grades_1_8": 40, "grades_9_12": 89, "prekg_qty": 0, "kg_qty": 0, "indian_alaska_qty": 0, "asian_qty": 0, "hispanic_qty": 5, "black_qty": 122, "white_qty": 1, "hawaiian_qty": 0, "twoormore_races_qty": 1, "total_race": 129 }, "geometry": { "type": "Point", "coordinates": [ -84.398488, 33.675164 ] } },
{ "type": "Feature", "properties": { "school_id": 130012004145, "school_name": "ATLANTA CLASSICAL ACADEMY", "state": "GEORGIA", "state_code": 13, "city": "ATLANTA", "address": "3260 Northside Dr NW", "school_type": "1-Regular school", "total_students": 667, "grades_1_8": 437, "grades_9_12": 175, "prekg_qty": 0, "kg_qty": 55, "indian_alaska_qty": 1, "asian_qty": 14, "hispanic_qty": 70, "black_qty": 88, "white_qty": 476, "hawaiian_qty": 0, "twoormore_races_qty": 18, "total_race": 667 }, "geometry": { "type": "Point", "coordinates": [ -84.407711, 33.84378 ] } },
{ "type": "Feature", "properties": { "school_id": 130022104021, "school_name": "ATLANTA HEIGHTS CHARTER SCHOOL", "state": "GEORGIA", "state_code": 13, "city": "ATLANTA", "address": "3712 Martin Luther King Jr Dr", "school_type": "1-Regular school", "total_students": 759, "grades_1_8": 679, "grades_9_12": 0, "prekg_qty": 0, "kg_qty": 80, "indian_alaska_qty": 2, "asian_qty": 1, "hispanic_qty": 31, "black_qty": 719, "white_qty": 2, "hawaiian_qty": 1, "twoormore_races_qty": 3, "total_race": 759 }, "geometry": { "type": "Point", "coordinates": [ -84.513714, 33.762973 ] } },
{ "type": "Feature", "properties": { "school_id": 130012002615, "school_name": "ATLANTA NEIGHBORHOOD CHARTER - ELEMENTARY", "state": "GEORGIA", "state_code": 13, "city": "ATLANTA", "address": "688 Grant St SE", "school_type": "1-Regular school", "total_students": 396, "grades_1_8": 332, "grades_9_12": 0, "prekg_qty": 0, "kg_qty": 64, "indian_alaska_qty": 0, "asian_qty": 3, "hispanic_qty": 15, "black_qty": 57, "white_qty": 282, "hawaiian_qty": 0, "twoormore_races_qty": 39, "total_race": 396 }, "geometry": { "type": "Point", "coordinates": [ -84.376126, 33.73573 ] } },
{ "type": "Feature", "properties": { "school_id": 130012003541, "school_name": "ATLANTA NEIGHBORHOOD CHARTER - MIDDLE", "state": "GEORGIA", "state_code": 13, "city": "ATLANTA", "address": "820 Essie Ave SE", "school_type": "1-Regular school", "total_students": 232, "grades_1_8": 232, "grades_9_12": 0, "prekg_qty": 0, "kg_qty": 0, "indian_alaska_qty": 0, "asian_qty": 1, "hispanic_qty": 14, "black_qty": 57, "white_qty": 143, "hawaiian_qty": 1, "twoormore_races_qty": 16, "total_race": 232 }, "geometry": { "type": "Point", "coordinates": [ -84.355146, 33.732522 ] } },
{ "type": "Feature", "properties": { "school_id": 130012003558, "school_name": "B.E.S.T ACADEMY", "state": "GEORGIA", "state_code": 13, "city": "ATLANTA", "address": "1190 Northwest Dr NW", "school_type": "1-Regular school", "total_students": 326, "grades_1_8": 136, "grades_9_12": 190, "prekg_qty": 0, "kg_qty": 0, "indian_alaska_qty": 0, "asian_qty": 0, "hispanic_qty": 11, "black_qty": 315, "white_qty": 0, "hawaiian_qty": 0, "twoormore_races_qty": 0, "total_race": 326 }, "geometry": { "type": "Point", "coordinates": [ -84.479439, 33.788712 ] } },
{ "type": "Feature", "properties": { "school_id": 130012000077, "school_name": "BARACK AND MICHELLE OBAMA ACADEMY", "state": "GEORGIA", "state_code": 13, "city": "ATLANTA", "address": "970 Martin St SE", "school_type": "1-Regular school", "total_students": 290, "grades_1_8": 209, "grades_9_12": 0, "prekg_qty": 25, "kg_qty": 56, "indian_alaska_qty": 0, "asian_qty": 1, "hispanic_qty": 4, "black_qty": 278, "white_qty": 5, "hawaiian_qty": 0, "twoormore_races_qty": 2, "total_race": 290 }, "geometry": { "type": "Point", "coordinates": [ -84.382665, 33.728156 ] } },
{ "type": "Feature", "properties": { "school_id": 130012003030, "school_name": "BAZOLINE E. USHER\/COLLIER HEIGHTS ELMENTARY SCHOOL", "state": "GEORGIA", "state_code": 13, "city": "ATLANTA", "address": "631 Harwell Rd NW", "school_type": "1-Regular school", "total_students": 417, "grades_1_8": 339, "grades_9_12": 0, "prekg_qty": 20, "kg_qty": 58, "indian_alaska_qty": 0, "asian_qty": 2, "hispanic_qty": 15, "black_qty": 397, "white_qty": 0, "hawaiian_qty": 0, "twoormore_races_qty": 3, "total_race": 417 }, "geometry": { "type": "Point", "coordinates": [ -84.493964, 33.772548 ] } },
{ "type": "Feature", "properties": { "school_id": 130012000118, "school_name": "BEECHER HILLS ELEMENTARY SCHOOL", "state": "GEORGIA", "state_code": 13, "city": "ATLANTA", "address": "2257 Bolling Brook Dr SW", "school_type": "1-Regular school", "total_students": 290, "grades_1_8": 232, "grades_9_12": 0, "prekg_qty": 20, "kg_qty": 38, "indian_alaska_qty": 0, "asian_qty": 0, "hispanic_qty": 4, "black_qty": 283, "white_qty": 0, "hawaiian_qty": 0, "twoormore_races_qty": 3, "total_race": 290 }, "geometry": { "type": "Point", "coordinates": [ -84.463546, 33.735871 ] } },
{ "type": "Feature", "properties": { "school_id": 130012000073, "school_name": "BENTEEN ELEMENTARY SCHOOL", "state": "GEORGIA", "state_code": 13, "city": "ATLANTA", "address": "200 Cassanova St SE", "school_type": "1-Regular school", "total_students": 314, "grades_1_8": 225, "grades_9_12": 0, "prekg_qty": 38, "kg_qty": 51, "indian_alaska_qty": 2, "asian_qty": 0, "hispanic_qty": 100, "black_qty": 196, "white_qty": 9, "hawaiian_qty": 0, "twoormore_races_qty": 7, "total_race": 314 }, "geometry": { "type": "Point", "coordinates": [ -84.364823, 33.716585 ] } },
{ "type": "Feature", "properties": { "school_id": 130012003028, "school_name": "BOLTON ACADEMY", "state": "GEORGIA", "state_code": 13, "city": "ATLANTA", "address": "2268 Adams Dr NW", "school_type": "1-Regular school", "total_students": 601, "grades_1_8": 454, "grades_9_12": 0, "prekg_qty": 61, "kg_qty": 86, "indian_alaska_qty": 4, "asian_qty": 7, "hispanic_qty": 179, "black_qty": 237, "white_qty": 148, "hawaiian_qty": 0, "twoormore_races_qty": 26, "total_race": 601 }, "geometry": { "type": "Point", "coordinates": [ -84.455321, 33.817435 ] } },
{ "type": "Feature", "properties": { "school_id": 130012004174, "school_name": "BOOKER T. WASHINGTON HIGH SCHOOL", "state": "GEORGIA", "state_code": 13, "city": "ATLANTA", "address": "45 Whitehouse Dr SW", "school_type": "1-Regular school", "total_students": 679, "grades_1_8": 0, "grades_9_12": 679, "prekg_qty": 0, "kg_qty": 0, "indian_alaska_qty": 0, "asian_qty": 1, "hispanic_qty": 19, "black_qty": 657, "white_qty": 0, "hawaiian_qty": 0, "twoormore_races_qty": 2, "total_race": 679 }, "geometry": { "type": "Point", "coordinates": [ -84.421791, 33.75358 ] } },
{ "type": "Feature", "properties": { "school_id": 130012000022, "school_name": "BOYD ELEMENTARY SCHOOL", "state": "GEORGIA", "state_code": 13, "city": "ATLANTA", "address": "1891 Johnson Rd NW", "school_type": "1-Regular school", "total_students": 476, "grades_1_8": 356, "grades_9_12": 0, "prekg_qty": 40, "kg_qty": 80, "indian_alaska_qty": 1, "asian_qty": 0, "hispanic_qty": 15, "black_qty": 457, "white_qty": 0, "hawaiian_qty": 0, "twoormore_races_qty": 3, "total_race": 476 }, "geometry": { "type": "Point", "coordinates": [ -84.449333, 33.785818 ] } },
{ "type": "Feature", "properties": { "school_id": 130012000127, "school_name": "BRANDON ELEMENTARY SCHOOL", "state": "GEORGIA", "state_code": 13, "city": "ATLANTA", "address": "2741 Howell Mill Rd NW", "school_type": "1-Regular school", "total_students": 1008, "grades_1_8": 846, "grades_9_12": 0, "prekg_qty": 0, "kg_qty": 162, "indian_alaska_qty": 2, "asian_qty": 51, "hispanic_qty": 77, "black_qty": 159, "white_qty": 678, "hawaiian_qty": 1, "twoormore_races_qty": 40, "total_race": 1008 }, "geometry": { "type": "Point", "coordinates": [ -84.415559, 33.829955 ] } },
{ "type": "Feature", "properties": { "school_id": 130012002344, "school_name": "BROWN MIDDLE SCHOOL", "state": "GEORGIA", "state_code": 13, "city": "ATLANTA", "address": "765 Peeples St SW", "school_type": "1-Regular school", "total_students": 480, "grades_1_8": 480, "grades_9_12": 0, "prekg_qty": 0, "kg_qty": 0, "indian_alaska_qty": 1, "asian_qty": 0, "hispanic_qty": 5, "black_qty": 471, "white_qty": 0, "hawaiian_qty": 0, "twoormore_races_qty": 3, "total_race": 480 }, "geometry": { "type": "Point", "coordinates": [ -84.421142, 33.734051 ] } },
{ "type": "Feature", "properties": { "school_id": 130012000150, "school_name": "BUNCHE MIDDLE SCHOOL", "state": "GEORGIA", "state_code": 13, "city": "ATLANTA", "address": "1925 Niskey Lake Rd SW", "school_type": "1-Regular school", "total_students": 930, "grades_1_8": 930, "grades_9_12": 0, "prekg_qty": 0, "kg_qty": 0, "indian_alaska_qty": 0, "asian_qty": 0, "hispanic_qty": 26, "black_qty": 902, "white_qty": 0, "hawaiian_qty": 0, "twoormore_races_qty": 2, "total_race": 930 }, "geometry": { "type": "Point", "coordinates": [ -84.530674, 33.70128 ] } },
{ "type": "Feature", "properties": { "school_id": 130012003471, "school_name": "BURGESS-PETERSON ELEMENTARY SCHOOL", "state": "GEORGIA", "state_code": 13, "city": "ATLANTA", "address": "480 Clifton St SE", "school_type": "1-Regular school", "total_students": 520, "grades_1_8": 382, "grades_9_12": 0, "prekg_qty": 58, "kg_qty": 80, "indian_alaska_qty": 2, "asian_qty": 2, "hispanic_qty": 17, "black_qty": 354, "white_qty": 111, "hawaiian_qty": 0, "twoormore_races_qty": 34, "total_race": 520 }, "geometry": { "type": "Point", "coordinates": [ -84.331663, 33.740633 ] } },
{ "type": "Feature", "properties": { "school_id": 130012004223, "school_name": "CARVER HIGH SCHOOL", "state": "GEORGIA", "state_code": 13, "city": "ATLANTA", "address": "55 McDonough Blvd SE", "school_type": "1-Regular school", "total_students": 499, "grades_1_8": 0, "grades_9_12": 499, "prekg_qty": 0, "kg_qty": 0, "indian_alaska_qty": 0, "asian_qty": 0, "hispanic_qty": 7, "black_qty": 492, "white_qty": 0, "hawaiian_qty": 0, "twoormore_races_qty": 0, "total_race": 499 }, "geometry": { "type": "Point", "coordinates": [ -84.38906, 33.719134 ] } },
{ "type": "Feature", "properties": { "school_id": 130012000092, "school_name": "CASCADE ELEMENTARY SCHOOL", "state": "GEORGIA", "state_code": 13, "city": "ATLANTA", "address": "2326 Venetian Dr SW", "school_type": "1-Regular school", "total_students": 425, "grades_1_8": 347, "grades_9_12": 0, "prekg_qty": 20, "kg_qty": 58, "indian_alaska_qty": 0, "asian_qty": 0, "hispanic_qty": 6, "black_qty": 419, "white_qty": 0, "hawaiian_qty": 0, "twoormore_races_qty": 0, "total_race": 425 }, "geometry": { "type": "Point", "coordinates": [ -84.465455, 33.717175 ] } },
{ "type": "Feature", "properties": { "school_id": 130012002290, "school_name": "CENTENNIAL ACADEMY", "state": "GEORGIA", "state_code": 13, "city": "ATLANTA", "address": "531 Luckie St NW", "school_type": "1-Regular school", "total_students": 812, "grades_1_8": 720, "grades_9_12": 0, "prekg_qty": 0, "kg_qty": 92, "indian_alaska_qty": 3, "asian_qty": 10, "hispanic_qty": 35, "black_qty": 704, "white_qty": 26, "hawaiian_qty": 0, "twoormore_races_qty": 34, "total_race": 812 }, "geometry": { "type": "Point", "coordinates": [ -84.395432, 33.769698 ] } },
{ "type": "Feature", "properties": { "school_id": 130012004161, "school_name": "CHARLES DREW CHARTER SCHOOL JA\/SA", "state": "GEORGIA", "state_code": 13, "city": "ATLANTA", "address": "300 E Lake Blvd SE", "school_type": "1-Regular school", "total_students": 833, "grades_1_8": 402, "grades_9_12": 431, "prekg_qty": 0, "kg_qty": 0, "indian_alaska_qty": 0, "asian_qty": 9, "hispanic_qty": 22, "black_qty": 699, "white_qty": 71, "hawaiian_qty": 2, "twoormore_races_qty": 30, "total_race": 833 }, "geometry": { "type": "Point", "coordinates": [ -84.312181, 33.74433 ] } },
{ "type": "Feature", "properties": { "school_id": 130012002453, "school_name": "CHARLES R. DREW CHARTER SCHOOL", "state": "GEORGIA", "state_code": 13, "city": "ATLANTA", "address": "301 E Lake Blvd SE", "school_type": "1-Regular school", "total_students": 994, "grades_1_8": 757, "grades_9_12": 0, "prekg_qty": 88, "kg_qty": 149, "indian_alaska_qty": 1, "asian_qty": 8, "hispanic_qty": 29, "black_qty": 633, "white_qty": 270, "hawaiian_qty": 3, "twoormore_races_qty": 50, "total_race": 994 }, "geometry": { "type": "Point", "coordinates": [ -84.311256, 33.746531 ] } },
{ "type": "Feature", "properties": { "school_id": 130012000091, "school_name": "CLEVELAND ELEMENTARY SCHOOL", "state": "GEORGIA", "state_code": 13, "city": "ATLANTA", "address": "2672 Old Hapeville Rd SW", "school_type": "1-Regular school", "total_students": 359, "grades_1_8": 279, "grades_9_12": 0, "prekg_qty": 22, "kg_qty": 58, "indian_alaska_qty": 0, "asian_qty": 1, "hispanic_qty": 20, "black_qty": 334, "white_qty": 0, "hawaiian_qty": 0, "twoormore_races_qty": 4, "total_race": 359 }, "geometry": { "type": "Point", "coordinates": [ -84.392237, 33.682797 ] } },
{ "type": "Feature", "properties": { "school_id": 130012000113, "school_name": "CONTINENTAL COLONY ELEMENTARY SCHOOL", "state": "GEORGIA", "state_code": 13, "city": "ATLANTA", "address": "3181 Hogan Rd SW", "school_type": "1-Regular school", "total_students": 451, "grades_1_8": 341, "grades_9_12": 0, "prekg_qty": 40, "kg_qty": 70, "indian_alaska_qty": 0, "asian_qty": 1, "hispanic_qty": 7, "black_qty": 440, "white_qty": 0, "hawaiian_qty": 0, "twoormore_races_qty": 3, "total_race": 451 }, "geometry": { "type": "Point", "coordinates": [ -84.491653, 33.678693 ] } },
{ "type": "Feature", "properties": { "school_id": 130012003980, "school_name": "CORRETTA SCOTT KING WOMENS' LEADERSHIP ACADEMY", "state": "GEORGIA", "state_code": 13, "city": "ATLANTA", "address": "1190 Northwest Dr NW", "school_type": "1-Regular school", "total_students": 350, "grades_1_8": 159, "grades_9_12": 191, "prekg_qty": 0, "kg_qty": 0, "indian_alaska_qty": 0, "asian_qty": 0, "hispanic_qty": 17, "black_qty": 329, "white_qty": 0, "hawaiian_qty": 1, "twoormore_races_qty": 3, "total_race": 350 }, "geometry": { "type": "Point", "coordinates": [ -84.479319, 33.789348 ] } },
{ "type": "Feature", "properties": { "school_id": 130012000120, "school_name": "CRIM HIGH SCHOOL", "state": "GEORGIA", "state_code": 13, "city": "ATLANTA", "address": "256 Clifton St SE", "school_type": "4-Alternative\/other school", "total_students": 207, "grades_1_8": 0, "grades_9_12": 207, "prekg_qty": 0, "kg_qty": 0, "indian_alaska_qty": 0, "asian_qty": 0, "hispanic_qty": 8, "black_qty": 196, "white_qty": 2, "hawaiian_qty": 0, "twoormore_races_qty": 1, "total_race": 207 }, "geometry": { "type": "Point", "coordinates": [ -84.331369, 33.746356 ] } },
{ "type": "Feature", "properties": { "school_id": 130012003470, "school_name": "DEERWOOD ACADEMY SCHOOL", "state": "GEORGIA", "state_code": 13, "city": "ATLANTA", "address": "3070 Fairburn Rd SW", "school_type": "1-Regular school", "total_students": 677, "grades_1_8": 544, "grades_9_12": 0, "prekg_qty": 43, "kg_qty": 90, "indian_alaska_qty": 0, "asian_qty": 0, "hispanic_qty": 16, "black_qty": 652, "white_qty": 3, "hawaiian_qty": 1, "twoormore_races_qty": 5, "total_race": 677 }, "geometry": { "type": "Point", "coordinates": [ -84.513276, 33.67073 ] } },
{ "type": "Feature", "properties": { "school_id": 130002703682, "school_name": "DEPARTMENT OF HUMAN RESOURCES", "state": "GEORGIA", "state_code": 13, "city": "ATLANTA", "address": "2 Peachtree Street NW", "school_type": "4-Alternative\/other school", "total_students": 0, "grades_1_8": 0, "grades_9_12": 0, "prekg_qty": 0, "kg_qty": 0, "indian_alaska_qty": 0, "asian_qty": 0, "hispanic_qty": 0, "black_qty": 0, "white_qty": 0, "hawaiian_qty": 0, "twoormore_races_qty": 0, "total_race": 0 }, "geometry": { "type": "Point", "coordinates": [ -84.390641, 33.75416 ] } },
{ "type": "Feature", "properties": { "school_id": 130012003025, "school_name": "DOBBS ELEMENTARY SCHOOL", "state": "GEORGIA", "state_code": 13, "city": "ATLANTA", "address": "2025 Jonesboro Rd SE", "school_type": "1-Regular school", "total_students": 460, "grades_1_8": 382, "grades_9_12": 0, "prekg_qty": 22, "kg_qty": 56, "indian_alaska_qty": 0, "asian_qty": 0, "hispanic_qty": 18, "black_qty": 435, "white_qty": 4, "hawaiian_qty": 1, "twoormore_races_qty": 2, "total_race": 460 }, "geometry": { "type": "Point", "coordinates": [ -84.372499, 33.698314 ] } },
{ "type": "Feature", "properties": { "school_id": 130012000089, "school_name": "DOUGLASS HIGH SCHOOL", "state": "GEORGIA", "state_code": 13, "city": "ATLANTA", "address": "225 Hamilton E Holmes Dr NW", "school_type": "1-Regular school", "total_students": 968, "grades_1_8": 0, "grades_9_12": 968, "prekg_qty": 0, "kg_qty": 0, "indian_alaska_qty": 0, "asian_qty": 0, "hispanic_qty": 30, "black_qty": 930, "white_qty": 2, "hawaiian_qty": 0, "twoormore_races_qty": 6, "total_race": 968 }, "geometry": { "type": "Point", "coordinates": [ -84.46807, 33.761195 ] } },
{ "type": "Feature", "properties": { "school_id": 130012000054, "school_name": "DUNBAR ELEMENTARY SCHOOL", "state": "GEORGIA", "state_code": 13, "city": "ATLANTA", "address": "500 Whitehall Ter SW", "school_type": "1-Regular school", "total_students": 380, "grades_1_8": 307, "grades_9_12": 0, "prekg_qty": 0, "kg_qty": 73, "indian_alaska_qty": 1, "asian_qty": 0, "hispanic_qty": 11, "black_qty": 362, "white_qty": 2, "hawaiian_qty": 0, "twoormore_races_qty": 4, "total_race": 380 }, "geometry": { "type": "Point", "coordinates": [ -84.400871, 33.74128 ] } },
{ "type": "Feature", "properties": { "school_id": 130012003540, "school_name": "EARLY COLLEGE HIGH SCHOOL AT CARVER", "state": "GEORGIA", "state_code": 13, "city": "ATLANTA", "address": "55 McDonough Blvd SE", "school_type": "1-Regular school", "total_students": 468, "grades_1_8": 0, "grades_9_12": 468, "prekg_qty": 0, "kg_qty": 0, "indian_alaska_qty": 1, "asian_qty": 0, "hispanic_qty": 18, "black_qty": 445, "white_qty": 0, "hawaiian_qty": 0, "twoormore_races_qty": 4, "total_race": 468 }, "geometry": { "type": "Point", "coordinates": [ -84.388829, 33.719057 ] } },
{ "type": "Feature", "properties": { "school_id": 130012000045, "school_name": "F. L. STANTON ELEMENTARY SCHOOL", "state": "GEORGIA", "state_code": 13, "city": "ATLANTA", "address": "1625 Martin Luther King Jr Dr", "school_type": "1-Regular school", "total_students": 279, "grades_1_8": 225, "grades_9_12": 0, "prekg_qty": 18, "kg_qty": 36, "indian_alaska_qty": 0, "asian_qty": 0, "hispanic_qty": 1, "black_qty": 274, "white_qty": 2, "hawaiian_qty": 0, "twoormore_races_qty": 2, "total_race": 279 }, "geometry": { "type": "Point", "coordinates": [ -84.442641, 33.753733 ] } },
{ "type": "Feature", "properties": { "school_id": 130012000110, "school_name": "FAIN ELEMENTARY SCHOOL", "state": "GEORGIA", "state_code": 13, "city": "ATLANTA", "address": "101 Hemphill School Rd NW", "school_type": "1-Regular school", "total_students": 434, "grades_1_8": 351, "grades_9_12": 0, "prekg_qty": 20, "kg_qty": 63, "indian_alaska_qty": 0, "asian_qty": 0, "hispanic_qty": 48, "black_qty": 386, "white_qty": 0, "hawaiian_qty": 0, "twoormore_races_qty": 0, "total_race": 434 }, "geometry": { "type": "Point", "coordinates": [ -84.50016, 33.758148 ] } },
{ "type": "Feature", "properties": { "school_id": 130012000103, "school_name": "FICKETT ELEMENTARY SCHOOL", "state": "GEORGIA", "state_code": 13, "city": "ATLANTA", "address": "3935 Rux Rd SW", "school_type": "1-Regular school", "total_students": 538, "grades_1_8": 440, "grades_9_12": 0, "prekg_qty": 26, "kg_qty": 72, "indian_alaska_qty": 0, "asian_qty": 0, "hispanic_qty": 12, "black_qty": 522, "white_qty": 0, "hawaiian_qty": 0, "twoormore_races_qty": 4, "total_race": 538 }, "geometry": { "type": "Point", "coordinates": [ -84.517126, 33.697508 ] } },
{ "type": "Feature", "properties": { "school_id": 130012003468, "school_name": "FINCH ELEMENTARY", "state": "GEORGIA", "state_code": 13, "city": "ATLANTA", "address": "1114 Avon Ave SW", "school_type": "1-Regular school", "total_students": 458, "grades_1_8": 341, "grades_9_12": 0, "prekg_qty": 48, "kg_qty": 69, "indian_alaska_qty": 0, "asian_qty": 0, "hispanic_qty": 5, "black_qty": 447, "white_qty": 2, "hawaiian_qty": 0, "twoormore_races_qty": 4, "total_race": 458 }, "geometry": { "type": "Point", "coordinates": [ -84.42437, 33.721907 ] } },
{ "type": "Feature", "properties": { "school_id": 130012000029, "school_name": "GARDEN HILLS ELEMENTARY SCHOOL", "state": "GEORGIA", "state_code": 13, "city": "ATLANTA", "address": "285 Sheridan Dr NE", "school_type": "1-Regular school", "total_students": 548, "grades_1_8": 412, "grades_9_12": 0, "prekg_qty": 44, "kg_qty": 92, "indian_alaska_qty": 1, "asian_qty": 12, "hispanic_qty": 279, "black_qty": 122, "white_qty": 113, "hawaiian_qty": 2, "twoormore_races_qty": 19, "total_race": 548 }, "geometry": { "type": "Point", "coordinates": [ -84.37872, 33.831794 ] } },
{ "type": "Feature", "properties": { "school_id": 130024804288, "school_name": "GENESIS INNOVATION ACADEMY FOR BOYS", "state": "GEORGIA", "state_code": 13, "city": "ATLANTA", "address": "1049 Custer Avenue SE", "school_type": "1-Regular school", "total_students": 279, "grades_1_8": 249, "grades_9_12": 0, "prekg_qty": 0, "kg_qty": 30, "indian_alaska_qty": 0, "asian_qty": 0, "hispanic_qty": 20, "black_qty": 257, "white_qty": 2, "hawaiian_qty": 0, "twoormore_races_qty": 0, "total_race": 279 }, "geometry": { "type": "Point", "coordinates": [ -84.354711, 33.71553 ] } },
{ "type": "Feature", "properties": { "school_id": 130024404272, "school_name": "GENESIS INNOVATION ACADEMY FOR GIRLS", "state": "GEORGIA", "state_code": 13, "city": "ATLANTA", "address": "1049 Custer Avenue SE", "school_type": "1-Regular school", "total_students": 276, "grades_1_8": 245, "grades_9_12": 0, "prekg_qty": 0, "kg_qty": 31, "indian_alaska_qty": 0, "asian_qty": 0, "hispanic_qty": 6, "black_qty": 268, "white_qty": 2, "hawaiian_qty": 0, "twoormore_races_qty": 0, "total_race": 276 }, "geometry": { "type": "Point", "coordinates": [ -84.354711, 33.71553 ] } },
{ "type": "Feature", "properties": { "school_id": 130012000139, "school_name": "GIDEONS ELEMENTARY SCHOOL", "state": "GEORGIA", "state_code": 13, "city": "ATLANTA", "address": "897 Welch St SW", "school_type": "1-Regular school", "total_students": 379, "grades_1_8": 310, "grades_9_12": 0, "prekg_qty": 22, "kg_qty": 47, "indian_alaska_qty": 0, "asian_qty": 1, "hispanic_qty": 9, "black_qty": 365, "white_qty": 3, "hawaiian_qty": 0, "twoormore_races_qty": 1, "total_race": 379 }, "geometry": { "type": "Point", "coordinates": [ -84.40528, 33.730693 ] } },
{ "type": "Feature", "properties": { "school_id": 130012000066, "school_name": "GRADY HIGH SCHOOL", "state": "GEORGIA", "state_code": 13, "city": "ATLANTA", "address": "929 Charles Allen Dr NE", "school_type": "1-Regular school", "total_students": 1389, "grades_1_8": 0, "grades_9_12": 1389, "prekg_qty": 0, "kg_qty": 0, "indian_alaska_qty": 2, "asian_qty": 28, "hispanic_qty": 113, "black_qty": 591, "white_qty": 592, "hawaiian_qty": 0, "twoormore_races_qty": 63, "total_race": 1389 }, "geometry": { "type": "Point", "coordinates": [ -84.371415, 33.780559 ] } },
{ "type": "Feature", "properties": { "school_id": 130012003029, "school_name": "HARPER-ARCHER MIDDLE SCHOOL", "state": "GEORGIA", "state_code": 13, "city": "ATLANTA", "address": "3399 Collier Dr NW", "school_type": "1-Regular school", "total_students": 257, "grades_1_8": 257, "grades_9_12": 0, "prekg_qty": 0, "kg_qty": 0, "indian_alaska_qty": 0, "asian_qty": 0, "hispanic_qty": 15, "black_qty": 239, "white_qty": 1, "hawaiian_qty": 0, "twoormore_races_qty": 2, "total_race": 257 }, "geometry": { "type": "Point", "coordinates": [ -84.498792, 33.769621 ] } },
{ "type": "Feature", "properties": { "school_id": 130012002613, "school_name": "HERITAGE ACADEMY ELEMENTARY", "state": "GEORGIA", "state_code": 13, "city": "ATLANTA", "address": "3500 Villa Cir SE", "school_type": "1-Regular school", "total_students": 462, "grades_1_8": 384, "grades_9_12": 0, "prekg_qty": 21, "kg_qty": 57, "indian_alaska_qty": 0, "asian_qty": 0, "hispanic_qty": 13, "black_qty": 448, "white_qty": 0, "hawaiian_qty": 0, "twoormore_races_qty": 1, "total_race": 462 }, "geometry": { "type": "Point", "coordinates": [ -84.37859, 33.658834 ] } },
{ "type": "Feature", "properties": { "school_id": 130012003660, "school_name": "HILLSIDE CONANT SCHOOL", "state": "GEORGIA", "state_code": 13, "city": "ATLANTA", "address": "690 Courtenay Dr NE", "school_type": "1-Regular school", "total_students": 59, "grades_1_8": 34, "grades_9_12": 25, "prekg_qty": 0, "kg_qty": 0, "indian_alaska_qty": 0, "asian_qty": 0, "hispanic_qty": 5, "black_qty": 24, "white_qty": 27, "hawaiian_qty": 0, "twoormore_races_qty": 3, "total_race": 59 }, "geometry": { "type": "Point", "coordinates": [ -84.365399, 33.790283 ] } },
{ "type": "Feature", "properties": { "school_id": 130012000043, "school_name": "HUMPHRIES ELEMENTARY SCHOOL", "state": "GEORGIA", "state_code": 13, "city": "ATLANTA", "address": "3029 Humphries Dr SE", "school_type": "1-Regular school", "total_students": 302, "grades_1_8": 240, "grades_9_12": 0, "prekg_qty": 22, "kg_qty": 40, "indian_alaska_qty": 1, "asian_qty": 0, "hispanic_qty": 29, "black_qty": 269, "white_qty": 1, "hawaiian_qty": 1, "twoormore_races_qty": 1, "total_race": 302 }, "geometry": { "type": "Point", "coordinates": [ -84.376462, 33.671953 ] } },
{ "type": "Feature", "properties": { "school_id": 130012000039, "school_name": "HUTCHINSON ELEMENTARY SCHOOL", "state": "GEORGIA", "state_code": 13, "city": "ATLANTA", "address": "650 Cleveland Ave SW", "school_type": "1-Regular school", "total_students": 445, "grades_1_8": 366, "grades_9_12": 0, "prekg_qty": 19, "kg_qty": 60, "indian_alaska_qty": 3, "asian_qty": 0, "hispanic_qty": 60, "black_qty": 378, "white_qty": 0, "hawaiian_qty": 0, "twoormore_races_qty": 4, "total_race": 445 }, "geometry": { "type": "Point", "coordinates": [ -84.409627, 33.680695 ] } },
{ "type": "Feature", "properties": { "school_id": 130012000027, "school_name": "INMAN MIDDLE SCHOOL", "state": "GEORGIA", "state_code": 13, "city": "ATLANTA", "address": "774 Virginia Ave NE", "school_type": "1-Regular school", "total_students": 1065, "grades_1_8": 1065, "grades_9_12": 0, "prekg_qty": 0, "kg_qty": 0, "indian_alaska_qty": 5, "asian_qty": 30, "hispanic_qty": 80, "black_qty": 320, "white_qty": 570, "hawaiian_qty": 0, "twoormore_races_qty": 60, "total_race": 1065 }, "geometry": { "type": "Point", "coordinates": [ -84.362446, 33.782459 ] } },
{ "type": "Feature", "properties": { "school_id": 130012000137, "school_name": "JACKSON ELEMENTARY SCHOOL", "state": "GEORGIA", "state_code": 13, "city": "ATLANTA", "address": "1325 Mount Paran Rd NW", "school_type": "1-Regular school", "total_students": 700, "grades_1_8": 567, "grades_9_12": 0, "prekg_qty": 27, "kg_qty": 106, "indian_alaska_qty": 0, "asian_qty": 48, "hispanic_qty": 54, "black_qty": 101, "white_qty": 457, "hawaiian_qty": 1, "twoormore_races_qty": 39, "total_race": 700 }, "geometry": { "type": "Point", "coordinates": [ -84.42285, 33.873322 ] } },
{ "type": "Feature", "properties": { "school_id": 130012004276, "school_name": "JOHN LEWIS INVICTUS ACADEMY", "state": "GEORGIA", "state_code": 13, "city": "ATLANTA", "address": "1890 Donald Lee Hollowell Pkwy", "school_type": "1-Regular school", "total_students": 662, "grades_1_8": 662, "grades_9_12": 0, "prekg_qty": 0, "kg_qty": 0, "indian_alaska_qty": 1, "asian_qty": 0, "hispanic_qty": 28, "black_qty": 630, "white_qty": 3, "hawaiian_qty": 0, "twoormore_races_qty": 0, "total_race": 662 }, "geometry": { "type": "Point", "coordinates": [ -84.447932, 33.774616 ] } },
{ "type": "Feature", "properties": { "school_id": 130012000038, "school_name": "KIMBERLY ELEMENTARY SCHOOL", "state": "GEORGIA", "state_code": 13, "city": "ATLANTA", "address": "3090 McMurray Dr SW", "school_type": "1-Regular school", "total_students": 473, "grades_1_8": 392, "grades_9_12": 0, "prekg_qty": 20, "kg_qty": 61, "indian_alaska_qty": 0, "asian_qty": 0, "hispanic_qty": 24, "black_qty": 446, "white_qty": 0, "hawaiian_qty": 0, "twoormore_races_qty": 3, "total_race": 473 }, "geometry": { "type": "Point", "coordinates": [ -84.490066, 33.701937 ] } },
{ "type": "Feature", "properties": { "school_id": 130012004012, "school_name": "KINDEZI", "state": "GEORGIA", "state_code": 13, "city": "ATLANTA", "address": "286 Wilson Mill Rd SW", "school_type": "1-Regular school", "total_students": 414, "grades_1_8": 369, "grades_9_12": 0, "prekg_qty": 0, "kg_qty": 45, "indian_alaska_qty": 0, "asian_qty": 1, "hispanic_qty": 7, "black_qty": 382, "white_qty": 14, "hawaiian_qty": 1, "twoormore_races_qty": 9, "total_race": 414 }, "geometry": { "type": "Point", "coordinates": [ -84.513549, 33.754816 ] } },
{ "type": "Feature", "properties": { "school_id": 130012004277, "school_name": "KINDEZI OLD 4TH WARD", "state": "GEORGIA", "state_code": 13, "city": "ATLANTA", "address": "386 Pine St NE", "school_type": "1-Regular school", "total_students": 497, "grades_1_8": 438, "grades_9_12": 0, "prekg_qty": 0, "kg_qty": 59, "indian_alaska_qty": 0, "asian_qty": 2, "hispanic_qty": 13, "black_qty": 413, "white_qty": 47, "hawaiian_qty": 1, "twoormore_races_qty": 21, "total_race": 497 }, "geometry": { "type": "Point", "coordinates": [ -84.374561, 33.7682 ] } },
{ "type": "Feature", "properties": { "school_id": 130012000025, "school_name": "KING MIDDLE SCHOOL", "state": "GEORGIA", "state_code": 13, "city": "ATLANTA", "address": "545 Hill St SE", "school_type": "1-Regular school", "total_students": 790, "grades_1_8": 790, "grades_9_12": 0, "prekg_qty": 0, "kg_qty": 0, "indian_alaska_qty": 2, "asian_qty": 3, "hispanic_qty": 62, "black_qty": 699, "white_qty": 19, "hawaiian_qty": 0, "twoormore_races_qty": 5, "total_race": 790 }, "geometry": { "type": "Point", "coordinates": [ -84.380561, 33.7386 ] } },
{ "type": "Feature", "properties": { "school_id": 130012004059, "school_name": "KIPP ATLANTA COLLEGIATE ACADEMY", "state": "GEORGIA", "state_code": 13, "city": "ATLANTA", "address": "98 Anderson Ave NW", "school_type": "1-Regular school", "total_students": 775, "grades_1_8": 0, "grades_9_12": 775, "prekg_qty": 0, "kg_qty": 0, "indian_alaska_qty": 1, "asian_qty": 0, "hispanic_qty": 13, "black_qty": 755, "white_qty": 0, "hawaiian_qty": 0, "twoormore_races_qty": 6, "total_race": 775 }, "geometry": { "type": "Point", "coordinates": [ -84.451238, 33.756188 ] } },
{ "type": "Feature", "properties": { "school_id": 130012004315, "school_name": "KIPP SOUL PRIMARY", "state": "GEORGIA", "state_code": 13, "city": "ATLANTA", "address": "1890 Detroit Ave NW", "school_type": "1-Regular school", "total_students": 114, "grades_1_8": 0, "grades_9_12": 0, "prekg_qty": 0, "kg_qty": 114, "indian_alaska_qty": 0, "asian_qty": 0, "hispanic_qty": 1, "black_qty": 113, "white_qty": 0, "hawaiian_qty": 0, "twoormore_races_qty": 0, "total_race": 114 }, "geometry": { "type": "Point", "coordinates": [ -84.448834, 33.766715 ] } },
{ "type": "Feature", "properties": { "school_id": 130012003823, "school_name": "KIPP STRIVE ACADEMY", "state": "GEORGIA", "state_code": 13, "city": "ATLANTA", "address": "1444 Lucile Ave SW", "school_type": "1-Regular school", "total_students": 388, "grades_1_8": 388, "grades_9_12": 0, "prekg_qty": 0, "kg_qty": 0, "indian_alaska_qty": 2, "asian_qty": 0, "hispanic_qty": 10, "black_qty": 374, "white_qty": 1, "hawaiian_qty": 0, "twoormore_races_qty": 1, "total_race": 388 }, "geometry": { "type": "Point", "coordinates": [ -84.434831, 33.742065 ] } },
{ "type": "Feature", "properties": { "school_id": 130012004091, "school_name": "KIPP STRIVE PRIMARY", "state": "GEORGIA", "state_code": 13, "city": "ATLANTA", "address": "1448 Lucile Ave SW", "school_type": "1-Regular school", "total_students": 506, "grades_1_8": 410, "grades_9_12": 0, "prekg_qty": 0, "kg_qty": 96, "indian_alaska_qty": 0, "asian_qty": 1, "hispanic_qty": 9, "black_qty": 488, "white_qty": 3, "hawaiian_qty": 0, "twoormore_races_qty": 5, "total_race": 506 }, "geometry": { "type": "Point", "coordinates": [ -84.434679, 33.742119 ] } },
{ "type": "Feature", "properties": { "school_id": 130012003992, "school_name": "KIPP VISION", "state": "GEORGIA", "state_code": 13, "city": "ATLANTA", "address": "660 McWilliams Rd SE", "school_type": "1-Regular school", "total_students": 365, "grades_1_8": 365, "grades_9_12": 0, "prekg_qty": 0, "kg_qty": 0, "indian_alaska_qty": 0, "asian_qty": 0, "hispanic_qty": 18, "black_qty": 346, "white_qty": 0, "hawaiian_qty": 1, "twoormore_races_qty": 0, "total_race": 365 }, "geometry": { "type": "Point", "coordinates": [ -84.36683, 33.689136 ] } },
{ "type": "Feature", "properties": { "school_id": 130012004124, "school_name": "KIPP VISION PRIMARY", "state": "GEORGIA", "state_code": 13, "city": "ATLANTA", "address": "660 McWilliams Rd SE", "school_type": "1-Regular school", "total_students": 498, "grades_1_8": 396, "grades_9_12": 0, "prekg_qty": 0, "kg_qty": 102, "indian_alaska_qty": 0, "asian_qty": 0, "hispanic_qty": 21, "black_qty": 476, "white_qty": 0, "hawaiian_qty": 0, "twoormore_races_qty": 1, "total_race": 498 }, "geometry": { "type": "Point", "coordinates": [ -84.36683, 33.689136 ] } },
{ "type": "Feature", "properties": { "school_id": 130012004155, "school_name": "KIPP WAYS PRIMARY SCHOOL", "state": "GEORGIA", "state_code": 13, "city": "ATLANTA", "address": "350 Temple St NW", "school_type": "1-Regular school", "total_students": 505, "grades_1_8": 405, "grades_9_12": 0, "prekg_qty": 0, "kg_qty": 100, "indian_alaska_qty": 3, "asian_qty": 0, "hispanic_qty": 3, "black_qty": 496, "white_qty": 0, "hawaiian_qty": 0, "twoormore_races_qty": 3, "total_race": 505 }, "geometry": { "type": "Point", "coordinates": [ -84.422721, 33.76452 ] } },
{ "type": "Feature", "properties": { "school_id": 130012003031, "school_name": "KIPP WEST ATLANTA YOUNG SCHOLARS ACADEMY", "state": "GEORGIA", "state_code": 13, "city": "ATLANTA", "address": "350 Temple St NW", "school_type": "1-Regular school", "total_students": 361, "grades_1_8": 361, "grades_9_12": 0, "prekg_qty": 0, "kg_qty": 0, "indian_alaska_qty": 0, "asian_qty": 0, "hispanic_qty": 5, "black_qty": 351, "white_qty": 0, "hawaiian_qty": 0, "twoormore_races_qty": 5, "total_race": 361 }, "geometry": { "type": "Point", "coordinates": [ -84.422721, 33.76452 ] } },
{ "type": "Feature", "properties": { "school_id": 130012000136, "school_name": "LIN ELEMENTARY SCHOOL", "state": "GEORGIA", "state_code": 13, "city": "ATLANTA", "address": "586 Candler Park Dr NE", "school_type": "1-Regular school", "total_students": 662, "grades_1_8": 557, "grades_9_12": 0, "prekg_qty": 0, "kg_qty": 105, "indian_alaska_qty": 1, "asian_qty": 10, "hispanic_qty": 44, "black_qty": 82, "white_qty": 471, "hawaiian_qty": 1, "twoormore_races_qty": 53, "total_race": 662 }, "geometry": { "type": "Point", "coordinates": [ -84.34028, 33.769605 ] } },
{ "type": "Feature", "properties": { "school_id": 130012000017, "school_name": "LONG MIDDLE SCHOOL", "state": "GEORGIA", "state_code": 13, "city": "ATLANTA", "address": "3200 Latona Dr SW", "school_type": "1-Regular school", "total_students": 740, "grades_1_8": 740, "grades_9_12": 0, "prekg_qty": 0, "kg_qty": 0, "indian_alaska_qty": 2, "asian_qty": 0, "hispanic_qty": 60, "black_qty": 676, "white_qty": 0, "hawaiian_qty": 1, "twoormore_races_qty": 1, "total_race": 740 }, "geometry": { "type": "Point", "coordinates": [ -84.394447, 33.666489 ] } },
{ "type": "Feature", "properties": { "school_id": 130012000085, "school_name": "M. A. JONES ELEMENTARY SCHOOL", "state": "GEORGIA", "state_code": 13, "city": "ATLANTA", "address": "1040 Fair St SW", "school_type": "1-Regular school", "total_students": 512, "grades_1_8": 397, "grades_9_12": 0, "prekg_qty": 39, "kg_qty": 76, "indian_alaska_qty": 0, "asian_qty": 3, "hispanic_qty": 10, "black_qty": 495, "white_qty": 1, "hawaiian_qty": 1, "twoormore_races_qty": 2, "total_race": 512 }, "geometry": { "type": "Point", "coordinates": [ -84.421834, 33.74845 ] } },
{ "type": "Feature", "properties": { "school_id": 130012001939, "school_name": "MAYNARD H. JACKSON- JR. HIGH SCHOOL", "state": "GEORGIA", "state_code": 13, "city": "ATLANTA", "address": "801 Glenwood Ave SE", "school_type": "1-Regular school", "total_students": 1297, "grades_1_8": 0, "grades_9_12": 1297, "prekg_qty": 0, "kg_qty": 0, "indian_alaska_qty": 0, "asian_qty": 9, "hispanic_qty": 79, "black_qty": 1012, "white_qty": 159, "hawaiian_qty": 2, "twoormore_races_qty": 36, "total_race": 1297 }, "geometry": { "type": "Point", "coordinates": [ -84.361895, 33.739305 ] } },
{ "type": "Feature", "properties": { "school_id": 130012001865, "school_name": "MAYS HIGH SCHOOL", "state": "GEORGIA", "state_code": 13, "city": "ATLANTA", "address": "3450 Benjamin E Mays Dr SW", "school_type": "1-Regular school", "total_students": 1333, "grades_1_8": 0, "grades_9_12": 1333, "prekg_qty": 0, "kg_qty": 0, "indian_alaska_qty": 1, "asian_qty": 0, "hispanic_qty": 69, "black_qty": 1255, "white_qty": 1, "hawaiian_qty": 0, "twoormore_races_qty": 7, "total_race": 1333 }, "geometry": { "type": "Point", "coordinates": [ -84.50383, 33.733869 ] } },
{ "type": "Feature", "properties": { "school_id": 130012004237, "school_name": "MICHAEL R. HOLLIS INNOVATION ACADEMY", "state": "GEORGIA", "state_code": 13, "city": "ATLANTA", "address": "225 James P. Brawley Drive. NW", "school_type": "1-Regular school", "total_students": 660, "grades_1_8": 547, "grades_9_12": 0, "prekg_qty": 32, "kg_qty": 81, "indian_alaska_qty": 1, "asian_qty": 2, "hispanic_qty": 18, "black_qty": 632, "white_qty": 1, "hawaiian_qty": 0, "twoormore_races_qty": 6, "total_race": 660 }, "geometry": { "type": "Point", "coordinates": [ -84.41205, 33.76076 ] } },
{ "type": "Feature", "properties": { "school_id": 130012000063, "school_name": "MILES ELEMENTARY SCHOOL", "state": "GEORGIA", "state_code": 13, "city": "ATLANTA", "address": "4215 Bakers Ferry Rd SW", "school_type": "1-Regular school", "total_students": 609, "grades_1_8": 490, "grades_9_12": 0, "prekg_qty": 45, "kg_qty": 74, "indian_alaska_qty": 1, "asian_qty": 0, "hispanic_qty": 31, "black_qty": 570, "white_qty": 2, "hawaiian_qty": 2, "twoormore_races_qty": 3, "total_race": 609 }, "geometry": { "type": "Point", "coordinates": [ -84.525911, 33.755662 ] } },
{ "type": "Feature", "properties": { "school_id": 130012000130, "school_name": "MORNINGSIDE ELEMENTARY SCHOOL", "state": "GEORGIA", "state_code": 13, "city": "ATLANTA", "address": "1053 E Rock Springs Rd NE", "school_type": "1-Regular school", "total_students": 938, "grades_1_8": 773, "grades_9_12": 0, "prekg_qty": 0, "kg_qty": 165, "indian_alaska_qty": 0, "asian_qty": 67, "hispanic_qty": 82, "black_qty": 104, "white_qty": 620, "hawaiian_qty": 0, "twoormore_races_qty": 65, "total_race": 938 }, "geometry": { "type": "Point", "coordinates": [ -84.352773, 33.797126 ] } },
{ "type": "Feature", "properties": { "school_id": 130012002212, "school_name": "NORTH ATLANTA HIGH SCHOOL", "state": "GEORGIA", "state_code": 13, "city": "ATLANTA", "address": "4111 Northside Pkwy NW", "school_type": "1-Regular school", "total_students": 1978, "grades_1_8": 0, "grades_9_12": 1978, "prekg_qty": 0, "kg_qty": 0, "indian_alaska_qty": 4, "asian_qty": 35, "hispanic_qty": 478, "black_qty": 752, "white_qty": 644, "hawaiian_qty": 2, "twoormore_races_qty": 63, "total_race": 1978 }, "geometry": { "type": "Point", "coordinates": [ -84.445584, 33.866805 ] } },
{ "type": "Feature", "properties": { "school_id": 130012002517, "school_name": "PARKSIDE ELEMENTARY SCHOOL", "state": "GEORGIA", "state_code": 13, "city": "ATLANTA", "address": "685 Mercer St SE", "school_type": "1-Regular school", "total_students": 581, "grades_1_8": 434, "grades_9_12": 0, "prekg_qty": 57, "kg_qty": 90, "indian_alaska_qty": 1, "asian_qty": 4, "hispanic_qty": 42, "black_qty": 357, "white_qty": 147, "hawaiian_qty": 0, "twoormore_races_qty": 30, "total_race": 581 }, "geometry": { "type": "Point", "coordinates": [ -84.364662, 33.735083 ] } },
{ "type": "Feature", "properties": { "school_id": 130012000122, "school_name": "PERKERSON ELEMENTARY SCHOOL", "state": "GEORGIA", "state_code": 13, "city": "ATLANTA", "address": "2040 Brewer Blvd SW", "school_type": "1-Regular school", "total_students": 424, "grades_1_8": 315, "grades_9_12": 0, "prekg_qty": 41, "kg_qty": 68, "indian_alaska_qty": 0, "asian_qty": 0, "hispanic_qty": 15, "black_qty": 406, "white_qty": 0, "hawaiian_qty": 0, "twoormore_races_qty": 3, "total_race": 424 }, "geometry": { "type": "Point", "coordinates": [ -84.413381, 33.698119 ] } },
{ "type": "Feature", "properties": { "school_id": 130012000106, "school_name": "PEYTON FOREST ELEMENTARY SCHOOL", "state": "GEORGIA", "state_code": 13, "city": "ATLANTA", "address": "301 Peyton Rd SW", "school_type": "1-Regular school", "total_students": 477, "grades_1_8": 397, "grades_9_12": 0, "prekg_qty": 20, "kg_qty": 60, "indian_alaska_qty": 1, "asian_qty": 1, "hispanic_qty": 43, "black_qty": 424, "white_qty": 1, "hawaiian_qty": 2, "twoormore_races_qty": 5, "total_race": 477 }, "geometry": { "type": "Point", "coordinates": [ -84.4788, 33.748737 ] } },
{ "type": "Feature", "properties": { "school_id": 130012000060, "school_name": "PRICE MIDDLE SCHOOL", "state": "GEORGIA", "state_code": 13, "city": "ATLANTA", "address": "1670 Benjamin Weldon Bickers", "school_type": "1-Regular school", "total_students": 381, "grades_1_8": 381, "grades_9_12": 0, "prekg_qty": 0, "kg_qty": 0, "indian_alaska_qty": 0, "asian_qty": 0, "hispanic_qty": 11, "black_qty": 368, "white_qty": 1, "hawaiian_qty": 0, "twoormore_races_qty": 1, "total_race": 381 }, "geometry": { "type": "Point", "coordinates": [ -84.3874, 33.708921 ] } },
{ "type": "Feature", "properties": { "school_id": 130012000036, "school_name": "RIVERS ELEMENTARY SCHOOL", "state": "GEORGIA", "state_code": 13, "city": "ATLANTA", "address": "8 Peachtree Battle Ave NW", "school_type": "1-Regular school", "total_students": 804, "grades_1_8": 628, "grades_9_12": 0, "prekg_qty": 44, "kg_qty": 132, "indian_alaska_qty": 8, "asian_qty": 34, "hispanic_qty": 147, "black_qty": 240, "white_qty": 336, "hawaiian_qty": 2, "twoormore_races_qty": 37, "total_race": 804 }, "geometry": { "type": "Point", "coordinates": [ -84.390041, 33.819508 ] } },
{ "type": "Feature", "properties": { "school_id": 130012000099, "school_name": "SCOTT ELEMENTARY SCHOOL", "state": "GEORGIA", "state_code": 13, "city": "ATLANTA", "address": "1752 Hollywood Rd NW", "school_type": "1-Regular school", "total_students": 400, "grades_1_8": 304, "grades_9_12": 0, "prekg_qty": 37, "kg_qty": 59, "indian_alaska_qty": 0, "asian_qty": 0, "hispanic_qty": 21, "black_qty": 376, "white_qty": 2, "hawaiian_qty": 0, "twoormore_races_qty": 1, "total_race": 400 }, "geometry": { "type": "Point", "coordinates": [ -84.470953, 33.803316 ] } },
{ "type": "Feature", "properties": { "school_id": 130025104306, "school_name": "SLAM ACADEMY OF ATLANTA", "state": "GEORGIA", "state_code": 13, "city": "ATLANTA", "address": "1150 Westview Dr SW", "school_type": "1-Regular school", "total_students": 72, "grades_1_8": 55, "grades_9_12": 0, "prekg_qty": 0, "kg_qty": 17, "indian_alaska_qty": 0, "asian_qty": 0, "hispanic_qty": 1, "black_qty": 71, "white_qty": 0, "hawaiian_qty": 0, "twoormore_races_qty": 0, "total_race": 72 }, "geometry": { "type": "Point", "coordinates": [ -84.425407, 33.746719 ] } },
{ "type": "Feature", "properties": { "school_id": 130012000059, "school_name": "SLATER ELEMENTARY SCHOOL", "state": "GEORGIA", "state_code": 13, "city": "ATLANTA", "address": "1320 Pryor Rd SW", "school_type": "1-Regular school", "total_students": 573, "grades_1_8": 467, "grades_9_12": 0, "prekg_qty": 44, "kg_qty": 62, "indian_alaska_qty": 0, "asian_qty": 0, "hispanic_qty": 13, "black_qty": 555, "white_qty": 0, "hawaiian_qty": 1, "twoormore_races_qty": 4, "total_race": 573 }, "geometry": { "type": "Point", "coordinates": [ -84.391934, 33.718415 ] } },
{ "type": "Feature", "properties": { "school_id": 130012000124, "school_name": "SMITH ELEMENTARY SCHOOL", "state": "GEORGIA", "state_code": 13, "city": "ATLANTA", "address": "370 Old Ivy Rd NE", "school_type": "1-Regular school", "total_students": 979, "grades_1_8": 819, "grades_9_12": 0, "prekg_qty": 0, "kg_qty": 160, "indian_alaska_qty": 1, "asian_qty": 66, "hispanic_qty": 213, "black_qty": 205, "white_qty": 436, "hawaiian_qty": 0, "twoormore_races_qty": 58, "total_race": 979 }, "geometry": { "type": "Point", "coordinates": [ -84.375481, 33.858202 ] } },
{ "type": "Feature", "properties": { "school_id": 130012004240, "school_name": "SOUTH ATLANTA HIGH SCHOOL", "state": "GEORGIA", "state_code": 13, "city": "ATLANTA", "address": "800 Hutchens Rd SE", "school_type": "1-Regular school", "total_students": 823, "grades_1_8": 0, "grades_9_12": 823, "prekg_qty": 0, "kg_qty": 0, "indian_alaska_qty": 0, "asian_qty": 2, "hispanic_qty": 65, "black_qty": 745, "white_qty": 7, "hawaiian_qty": 1, "twoormore_races_qty": 3, "total_race": 823 }, "geometry": { "type": "Point", "coordinates": [ -84.36176, 33.671005 ] } },
{ "type": "Feature", "properties": { "school_id": 130012003841, "school_name": "SPRINGDALE PARK ELEMENTARY SCHOOL", "state": "GEORGIA", "state_code": 13, "city": "ATLANTA", "address": "1246 Ponce de Leon Ave NE", "school_type": "1-Regular school", "total_students": 739, "grades_1_8": 599, "grades_9_12": 0, "prekg_qty": 0, "kg_qty": 140, "indian_alaska_qty": 2, "asian_qty": 38, "hispanic_qty": 75, "black_qty": 91, "white_qty": 453, "hawaiian_qty": 1, "twoormore_races_qty": 79, "total_race": 739 }, "geometry": { "type": "Point", "coordinates": [ -84.346522, 33.775045 ] } },
{ "type": "Feature", "properties": { "school_id": 130012000107, "school_name": "SUTTON MIDDLE SCHOOL", "state": "GEORGIA", "state_code": 13, "city": "ATLANTA", "address": "2875 Northside Dr NW", "school_type": "1-Regular school", "total_students": 1614, "grades_1_8": 1614, "grades_9_12": 0, "prekg_qty": 0, "kg_qty": 0, "indian_alaska_qty": 14, "asian_qty": 46, "hispanic_qty": 420, "black_qty": 458, "white_qty": 615, "hawaiian_qty": 0, "twoormore_races_qty": 61, "total_race": 1614 }, "geometry": { "type": "Point", "coordinates": [ -84.40666, 33.832219 ] } },
{ "type": "Feature", "properties": { "school_id": 130012000058, "school_name": "SYLVAN HILLS MIDDLE SCHOOL", "state": "GEORGIA", "state_code": 13, "city": "ATLANTA", "address": "1461 Sylvan Rd SW", "school_type": "1-Regular school", "total_students": 550, "grades_1_8": 550, "grades_9_12": 0, "prekg_qty": 0, "kg_qty": 0, "indian_alaska_qty": 0, "asian_qty": 1, "hispanic_qty": 13, "black_qty": 532, "white_qty": 0, "hawaiian_qty": 0, "twoormore_races_qty": 4, "total_race": 550 }, "geometry": { "type": "Point", "coordinates": [ -84.419105, 33.715348 ] } },
{ "type": "Feature", "properties": { "school_id": 130012000143, "school_name": "THE JOHN HOPE-CHARLES WALTER HILL ELEMENTARY SCHOOLS", "state": "GEORGIA", "state_code": 13, "city": "ATLANTA", "address": "112 Boulevard NE", "school_type": "1-Regular school", "total_students": 446, "grades_1_8": 337, "grades_9_12": 0, "prekg_qty": 41, "kg_qty": 68, "indian_alaska_qty": 0, "asian_qty": 1, "hispanic_qty": 18, "black_qty": 404, "white_qty": 18, "hawaiian_qty": 0, "twoormore_races_qty": 5, "total_race": 446 }, "geometry": { "type": "Point", "coordinates": [ -84.37243, 33.757189 ] } },
{ "type": "Feature", "properties": { "school_id": 130012004215, "school_name": "THERRELL HIGH SCHOOL", "state": "GEORGIA", "state_code": 13, "city": "ATLANTA", "address": "3099 Panther Trl SW", "school_type": "1-Regular school", "total_students": 851, "grades_1_8": 0, "grades_9_12": 851, "prekg_qty": 0, "kg_qty": 0, "indian_alaska_qty": 1, "asian_qty": 0, "hispanic_qty": 17, "black_qty": 832, "white_qty": 0, "hawaiian_qty": 0, "twoormore_races_qty": 1, "total_race": 851 }, "geometry": { "type": "Point", "coordinates": [ -84.488761, 33.69889 ] } },
{ "type": "Feature", "properties": { "school_id": 130012000069, "school_name": "THOMASVILLE HEIGHTS ELEMENTARY SCHOOL", "state": "GEORGIA", "state_code": 13, "city": "ATLANTA", "address": "1820 Henry Thomas Dr SE", "school_type": "1-Regular school", "total_students": 462, "grades_1_8": 347, "grades_9_12": 0, "prekg_qty": 45, "kg_qty": 70, "indian_alaska_qty": 1, "asian_qty": 2, "hispanic_qty": 4, "black_qty": 453, "white_qty": 0, "hawaiian_qty": 0, "twoormore_races_qty": 2, "total_race": 462 }, "geometry": { "type": "Point", "coordinates": [ -84.354746, 33.70434 ] } },
{ "type": "Feature", "properties": { "school_id": 130012000052, "school_name": "TOOMER ELEMENTARY SCHOOL", "state": "GEORGIA", "state_code": 13, "city": "ATLANTA", "address": "65 Rogers St NE", "school_type": "1-Regular school", "total_students": 488, "grades_1_8": 350, "grades_9_12": 0, "prekg_qty": 64, "kg_qty": 74, "indian_alaska_qty": 0, "asian_qty": 7, "hispanic_qty": 11, "black_qty": 346, "white_qty": 107, "hawaiian_qty": 0, "twoormore_races_qty": 17, "total_race": 488 }, "geometry": { "type": "Point", "coordinates": [ -84.327778, 33.754806 ] } },
{ "type": "Feature", "properties": { "school_id": 130012000034, "school_name": "TOWNS ELEMENTARY SCHOOL", "state": "GEORGIA", "state_code": 13, "city": "ATLANTA", "address": "760 Bolton Rd NW", "school_type": "1-Regular school", "total_students": 360, "grades_1_8": 271, "grades_9_12": 0, "prekg_qty": 37, "kg_qty": 52, "indian_alaska_qty": 2, "asian_qty": 0, "hispanic_qty": 24, "black_qty": 332, "white_qty": 1, "hawaiian_qty": 0, "twoormore_races_qty": 1, "total_race": 360 }, "geometry": { "type": "Point", "coordinates": [ -84.50383, 33.776313 ] } },
{ "type": "Feature", "properties": { "school_id": 130012004244, "school_name": "TUSKEGEE AIRMAN GLOBAL ACADEMY", "state": "GEORGIA", "state_code": 13, "city": "ATLANTA", "address": "1654 S Alvarado Ter SW", "school_type": "1-Regular school", "total_students": 644, "grades_1_8": 517, "grades_9_12": 0, "prekg_qty": 20, "kg_qty": 107, "indian_alaska_qty": 1, "asian_qty": 1, "hispanic_qty": 4, "black_qty": 636, "white_qty": 1, "hawaiian_qty": 0, "twoormore_races_qty": 1, "total_race": 644 }, "geometry": { "type": "Point", "coordinates": [ -84.441151, 33.73088 ] } },
{ "type": "Feature", "properties": { "school_id": 130012003589, "school_name": "WESLEY INTERNATIONAL ACADEMY CHARTER FACILITY", "state": "GEORGIA", "state_code": 13, "city": "ATLANTA", "address": "211 Memorial Dr SE", "school_type": "1-Regular school", "total_students": 799, "grades_1_8": 711, "grades_9_12": 0, "prekg_qty": 0, "kg_qty": 88, "indian_alaska_qty": 0, "asian_qty": 4, "hispanic_qty": 42, "black_qty": 605, "white_qty": 102, "hawaiian_qty": 1, "twoormore_races_qty": 45, "total_race": 799 }, "geometry": { "type": "Point", "coordinates": [ -84.380944, 33.746662 ] } },
{ "type": "Feature", "properties": { "school_id": 130012000121, "school_name": "WEST MANOR ELEMENTARY SCHOOL", "state": "GEORGIA", "state_code": 13, "city": "ATLANTA", "address": "570 Lynhurst Dr SW", "school_type": "1-Regular school", "total_students": 278, "grades_1_8": 232, "grades_9_12": 0, "prekg_qty": 0, "kg_qty": 46, "indian_alaska_qty": 1, "asian_qty": 0, "hispanic_qty": 36, "black_qty": 231, "white_qty": 1, "hawaiian_qty": 2, "twoormore_races_qty": 7, "total_race": 278 }, "geometry": { "type": "Point", "coordinates": [ -84.489725, 33.73968 ] } },
{ "type": "Feature", "properties": { "school_id": 130012004139, "school_name": "WESTSIDE ATLANTA CHARTER SCHOOL", "state": "GEORGIA", "state_code": 13, "city": "ATLANTA", "address": "1903 Drew Dr NW", "school_type": "1-Regular school", "total_students": 311, "grades_1_8": 271, "grades_9_12": 0, "prekg_qty": 0, "kg_qty": 40, "indian_alaska_qty": 0, "asian_qty": 4, "hispanic_qty": 15, "black_qty": 193, "white_qty": 85, "hawaiian_qty": 1, "twoormore_races_qty": 13, "total_race": 311 }, "geometry": { "type": "Point", "coordinates": [ -84.451034, 33.793445 ] } },
{ "type": "Feature", "properties": { "school_id": 130012004224, "school_name": "WOODSON PARK ACADEMY", "state": "GEORGIA", "state_code": 13, "city": "ATLANTA", "address": "20 Evelyn Way NW", "school_type": "1-Regular school", "total_students": 565, "grades_1_8": 474, "grades_9_12": 0, "prekg_qty": 26, "kg_qty": 65, "indian_alaska_qty": 0, "asian_qty": 1, "hispanic_qty": 26, "black_qty": 531, "white_qty": 2, "hawaiian_qty": 0, "twoormore_races_qty": 5, "total_race": 565 }, "geometry": { "type": "Point", "coordinates": [ -84.443261, 33.77161 ] } },
{ "type": "Feature", "properties": { "school_id": 130012001866, "school_name": "YOUNG MIDDLE SCHOOL", "state": "GEORGIA", "state_code": 13, "city": "ATLANTA", "address": "3116 Benjamin E Mays Dr SW", "school_type": "1-Regular school", "total_students": 798, "grades_1_8": 798, "grades_9_12": 0, "prekg_qty": 0, "kg_qty": 0, "indian_alaska_qty": 1, "asian_qty": 0, "hispanic_qty": 63, "black_qty": 725, "white_qty": 3, "hawaiian_qty": 1, "twoormore_races_qty": 5, "total_race": 798 }, "geometry": { "type": "Point", "coordinates": [ -84.489467, 33.732706 ] } }
]
}
