{
"type": "FeatureCollection",
"crs": { "type": "name", "properties": { "name": "urn:ogc:def:crs:OGC:1.3:CRS84" } },
"features": [
{ "type": "Feature", "properties": { "school_id": "A0102860", "school_name": "ATLANTA GIRLS SCHOOL", "state": "GEORGIA", "state_code": 13, "city": "ATLANTA", "address": "3254 NORTHSIDE PKWY NW", "school_type": "1-Regular Elementary or Secondary", "low_grade": "6th grade", "high_grade": "12th grade  ", "affiliation": "3-Nonsectarian", "religious": "Nonsectarian", "zip": 30327.0, "zip4": 2200.0, "total_students": 248, "grades_1_8": 110, "grades_9_12": 138, "prekg_qty": 0, "kg_qty": 0, "ungraded_qty": 0, "indian_alaska_qty": 0, "asian_qty": 18, "hispanic_qty": 4, "black_qty": 72, "white_qty": 142, "hawaiian_qty": 0, "twoormore_races_qty": "12" }, "geometry": { "type": "Point", "coordinates": [ -84.424071, 33.8426 ] } },
{ "type": "Feature", "properties": { "school_id": "A9303093", "school_name": "ATLANTA INTERNATIONAL SCHOOL", "state": "GEORGIA", "state_code": 13, "city": "ATLANTA", "address": "2890 N FULTON DR NE", "school_type": "1-Regular Elementary or Secondary", "low_grade": "Prekindergarten", "high_grade": "12th grade  ", "affiliation": "3-Nonsectarian", "religious": "Nonsectarian", "zip": 30305.0, "zip4": 3155.0, "total_students": 1168, "grades_1_8": 632, "grades_9_12": 351, "prekg_qty": 113, "kg_qty": 72, "ungraded_qty": 0, "indian_alaska_qty": 1, "asian_qty": 137, "hispanic_qty": 42, "black_qty": 47, "white_qty": 793, "hawaiian_qty": 0, "twoormore_races_qty": "35" }, "geometry": { "type": "Point", "coordinates": [ -84.379011, 33.83335 ] } },
{ "type": "Feature", "properties": { "school_id": "00298853", "school_name": "ATLANTA SPEECH SCHOOL", "state": "GEORGIA", "state_code": 13, "city": "ATLANTA", "address": "3160 NORTHSIDE PKWY NW", "school_type": "1-Regular Elementary or Secondary", "low_grade": "6th grade", "high_grade": "12th grade  ", "affiliation": "3-Nonsectarian", "religious": "Nonsectarian", "zip": 30327.0, "zip4": 1555.0, "total_students": 248, "grades_1_8": 110, "grades_9_12": 138, "prekg_qty": 0, "kg_qty": 0, "ungraded_qty": 0, "indian_alaska_qty": 0, "asian_qty": 17, "hispanic_qty": 4, "black_qty": 75, "white_qty": 141, "hawaiian_qty": 0, "twoormore_races_qty": "11" }, "geometry": { "type": "Point", "coordinates": [ -84.422221, 33.84128 ] } },
{ "type": "Feature", "properties": { "school_id": "A9901460", "school_name": "ATLANTA YOUTH ACADEMY", "state": "GEORGIA", "state_code": 13, "city": "ATLANTA", "address": "2120 FORREST PARK RD SE", "school_type": "1-Regular Elementary or Secondary", "low_grade": "Prekindergarten", "high_grade": "8th grade ", "affiliation": "2-Other religious", "religious": "Christian (no specific denomination)", "zip": 30315.0, "zip4": 6834.0, "total_students": 137, "grades_1_8": 114, "grades_9_12": 0, "prekg_qty": 11, "kg_qty": 12, "ungraded_qty": 0, "indian_alaska_qty": 0, "asian_qty": 0, "hispanic_qty": 3, "black_qty": 123, "white_qty": 0, "hawaiian_qty": 0, "twoormore_races_qty": "0" }, "geometry": { "type": "Point", "coordinates": [ -84.358861, 33.69474 ] } },
{ "type": "Feature", "properties": { "school_id": "A0501396", "school_name": "BEREAN CHRISTIAN JR ACADEMY", "state": "GEORGIA", "state_code": 13, "city": "ATLANTA", "address": "401 HAMILTON E HOLMES DR NW", "school_type": "1-Regular Elementary or Secondary", "low_grade": "Kindergarten", "high_grade": "8th grade ", "affiliation": "2-Other religious", "religious": "Seventh–Day Adventist", "zip": 30318.0, "zip4": 7303.0, "total_students": 74, "grades_1_8": 64, "grades_9_12": 0, "prekg_qty": 0, "kg_qty": 10, "ungraded_qty": 0, "indian_alaska_qty": 1, "asian_qty": 0, "hispanic_qty": 0, "black_qty": 73, "white_qty": 0, "hawaiian_qty": 0, "twoormore_races_qty": "0" }, "geometry": { "type": "Point", "coordinates": [ -84.469141, 33.76522 ] } },
{ "type": "Feature", "properties": { "school_id": "A1301003", "school_name": "BRIGHT FUTURES ACADEMY", "state": "GEORGIA", "state_code": 13, "city": "ATLANTA", "address": "1300 JOSEPH E BOONE BLVD NW", "school_type": "1-Regular Elementary or Secondary", "low_grade": "6th grade", "high_grade": "12th grade  ", "affiliation": "2-Other religious", "religious": "Christian (no specific denomination)", "zip": 30314.0, "zip4": 2032.0, "total_students": 68, "grades_1_8": 40, "grades_9_12": 28, "prekg_qty": 0, "kg_qty": 0, "ungraded_qty": 0, "indian_alaska_qty": 0, "asian_qty": 0, "hispanic_qty": 0, "black_qty": 68, "white_qty": 0, "hawaiian_qty": 0, "twoormore_races_qty": "0" }, "geometry": { "type": "Point", "coordinates": [ -84.430411, 33.76218 ] } },
{ "type": "Feature", "properties": { "school_id": "A1501237", "school_name": "CARLISLE MONTESSORI SCHOOL OF BUCKHEAD", "state": "GEORGIA", "state_code": 13, "city": "ATLANTA", "address": "1036 LINDBERGH DR NE", "school_type": "2-Montessori", "low_grade": "Prekindergarten", "high_grade": "Kindergarten", "affiliation": "3-Nonsectarian", "religious": "Nonsectarian", "zip": 30324.0, "zip4": 3728.0, "total_students": 35, "grades_1_8": 0, "grades_9_12": 0, "prekg_qty": 10, "kg_qty": 25, "ungraded_qty": 0, "indian_alaska_qty": 0, "asian_qty": 4, "hispanic_qty": 2, "black_qty": 4, "white_qty": 15, "hawaiian_qty": 0, "twoormore_races_qty": "0" }, "geometry": { "type": "Point", "coordinates": [ -84.353561, 33.8194 ] } },
{ "type": "Feature", "properties": { "school_id": "A1770750", "school_name": "CHI MONTESSORI ACADEMY  INC", "state": "GEORGIA", "state_code": 13, "city": "ATLANTA", "address": "2407 CASCADE RD SW", "school_type": "2-Montessori", "low_grade": "Kindergarten", "high_grade": "2nd grade", "affiliation": "3-Nonsectarian", "religious": "Nonsectarian", "zip": 30311.0, "zip4": 3225.0, "total_students": 10, "grades_1_8": 3, "grades_9_12": 0, "prekg_qty": 0, "kg_qty": 7, "ungraded_qty": 0, "indian_alaska_qty": 0, "asian_qty": 0, "hispanic_qty": 0, "black_qty": 10, "white_qty": 0, "hawaiian_qty": 0, "twoormore_races_qty": "0" }, "geometry": { "type": "Point", "coordinates": [ -84.466981, 33.721703 ] } },
{ "type": "Feature", "properties": { "school_id": "00296007", "school_name": "CHRIST THE KING SCHOOL", "state": "GEORGIA", "state_code": 13, "city": "ATLANTA", "address": "46 PEACHTREE WAY NE", "school_type": "1-Regular Elementary or Secondary", "low_grade": "Kindergarten", "high_grade": "8th grade ", "affiliation": "1-Catholic", "religious": "Roman Catholic", "zip": 30305.0, "zip4": 3736.0, "total_students": 552, "grades_1_8": 477, "grades_9_12": 0, "prekg_qty": 0, "kg_qty": 75, "ungraded_qty": 0, "indian_alaska_qty": 0, "asian_qty": 12, "hispanic_qty": 48, "black_qty": 8, "white_qty": 467, "hawaiian_qty": 0, "twoormore_races_qty": "17" }, "geometry": { "type": "Point", "coordinates": [ -84.386364, 33.827828 ] } },
{ "type": "Feature", "properties": { "school_id": "A1501259", "school_name": "CRISTO REY ATLANTA JESUIT HIGH SCHOOL", "state": "GEORGIA", "state_code": 13, "city": "ATLANTA", "address": "222 PIEDMONT AVE NE", "school_type": "3-Special Program Emphasis", "low_grade": "9th grade", "high_grade": "10th grade", "affiliation": "1-Catholic", "religious": "Roman Catholic", "zip": 30308.0, "zip4": 3306.0, "total_students": 278, "grades_1_8": 0, "grades_9_12": 278, "prekg_qty": 0, "kg_qty": 0, "ungraded_qty": 0, "indian_alaska_qty": 11, "asian_qty": 5, "hispanic_qty": 86, "black_qty": 119, "white_qty": 16, "hawaiian_qty": 3, "twoormore_races_qty": "38" }, "geometry": { "type": "Point", "coordinates": [ -84.382631, 33.76054 ] } },
{ "type": "Feature", "properties": { "school_id": "A9300319", "school_name": "DAR-UN-NOOR ATLANTA SCIENCE ACADEMY", "state": "GEORGIA", "state_code": 13, "city": "ATLANTA", "address": "434 14TH ST NW", "school_type": "1-Regular Elementary or Secondary", "low_grade": "Prekindergarten", "high_grade": "12th grade  ", "affiliation": "2-Other religious", "religious": "Islamic", "zip": 30318.0, "zip4": 7944.0, "total_students": 164, "grades_1_8": 116, "grades_9_12": 19, "prekg_qty": 16, "kg_qty": 13, "ungraded_qty": 0, "indian_alaska_qty": 0, "asian_qty": 2, "hispanic_qty": 0, "black_qty": 16, "white_qty": 0, "hawaiian_qty": 0, "twoormore_races_qty": "130" }, "geometry": { "type": "Point", "coordinates": [ -84.401631, 33.78594 ] } },
{ "type": "Feature", "properties": { "school_id": "A0102895", "school_name": "GREATER ATLANTA ADVENTIST ACADEMY", "state": "GEORGIA", "state_code": 13, "city": "ATLANTA", "address": "401 HAMILTON E HOLMES DR NW", "school_type": "1-Regular Elementary or Secondary", "low_grade": "Kindergarten", "high_grade": "12th grade  ", "affiliation": "2-Other religious", "religious": "Seventh–Day Adventist", "zip": 30318.0, "zip4": 7303.0, "total_students": 129, "grades_1_8": 34, "grades_9_12": 84, "prekg_qty": 0, "kg_qty": 11, "ungraded_qty": 0, "indian_alaska_qty": 3, "asian_qty": 2, "hispanic_qty": 3, "black_qty": 118, "white_qty": 0, "hawaiian_qty": 2, "twoormore_races_qty": "1" }, "geometry": { "type": "Point", "coordinates": [ -84.469141, 33.76522 ] } },
{ "type": "Feature", "properties": { "school_id": "BB160894", "school_name": "HEALING WATERS CHRISTIAN ACADEMY", "state": "GEORGIA", "state_code": 13, "city": "ATLANTA", "address": "2315 PERKERSON RD SW", "school_type": "3-Special Program Emphasis", "low_grade": "Prekindergarten", "high_grade": "8th grade ", "affiliation": "2-Other religious", "religious": "Christian (no specific denomination)", "zip": 30315.0, "zip4": 6217.0, "total_students": 50, "grades_1_8": 27, "grades_9_12": 0, "prekg_qty": 18, "kg_qty": 5, "ungraded_qty": 0, "indian_alaska_qty": 0, "asian_qty": 0, "hispanic_qty": 0, "black_qty": 29, "white_qty": 0, "hawaiian_qty": 0, "twoormore_races_qty": "3" }, "geometry": { "type": "Point", "coordinates": [ -84.411751, 33.69117 ] } },
{ "type": "Feature", "properties": { "school_id": "A0301218", "school_name": "HERITAGE PREPARATORY SCHOOL OF GA", "state": "GEORGIA", "state_code": 13, "city": "ATLANTA", "address": "1700 PIEDMONT AVE NE", "school_type": "1-Regular Elementary or Secondary", "low_grade": "Prekindergarten", "high_grade": "8th grade ", "affiliation": "2-Other religious", "religious": "Christian (no specific denomination)", "zip": 30324.0, "zip4": 5213.0, "total_students": 135, "grades_1_8": 112, "grades_9_12": 0, "prekg_qty": 9, "kg_qty": 14, "ungraded_qty": 0, "indian_alaska_qty": 0, "asian_qty": 3, "hispanic_qty": 0, "black_qty": 7, "white_qty": 110, "hawaiian_qty": 0, "twoormore_races_qty": "6" }, "geometry": { "type": "Point", "coordinates": [ -84.368271, 33.80227 ] } },
{ "type": "Feature", "properties": { "school_id": "A1501442", "school_name": "HOLY SPIRIT PREPARTORY SCHOOL", "state": "GEORGIA", "state_code": 13, "city": "ATLANTA", "address": "4449 NORTHSIDE DR NW", "school_type": "1-Regular Elementary or Secondary", "low_grade": "Kindergarten", "high_grade": "12th grade  ", "affiliation": "1-Catholic", "religious": "Roman Catholic", "zip": 30327.0, "zip4": 3623.0, "total_students": 575, "grades_1_8": 339, "grades_9_12": 172, "prekg_qty": 0, "kg_qty": 64, "ungraded_qty": 0, "indian_alaska_qty": 1, "asian_qty": 12, "hispanic_qty": 93, "black_qty": 50, "white_qty": 364, "hawaiian_qty": 1, "twoormore_races_qty": "54" }, "geometry": { "type": "Point", "coordinates": [ -84.409641, 33.87713 ] } },
{ "type": "Feature", "properties": { "school_id": "A1301071", "school_name": "IMHOTOP ACADEMY", "state": "GEORGIA", "state_code": 13, "city": "ATLANTA", "address": "667 FAIRBURN RD NW", "school_type": "1-Regular Elementary or Secondary", "low_grade": "Prekindergarten", "high_grade": "8th grade ", "affiliation": "3-Nonsectarian", "religious": "Nonsectarian", "zip": 30331.0, "zip4": 1423.0, "total_students": 150, "grades_1_8": 128, "grades_9_12": 0, "prekg_qty": 7, "kg_qty": 15, "ungraded_qty": 0, "indian_alaska_qty": 0, "asian_qty": 0, "hispanic_qty": 2, "black_qty": 141, "white_qty": 0, "hawaiian_qty": 0, "twoormore_races_qty": "0" }, "geometry": { "type": "Point", "coordinates": [ -84.498431, 33.77246 ] } },
{ "type": "Feature", "properties": { "school_id": "A1301082", "school_name": "LEARNING EXPECTATIONS AND ACADEMIC PERFORMANCE ACA", "state": "GEORGIA", "state_code": 13, "city": "COLLEGE PARK", "address": "4050 KELDEN CT", "school_type": "1-Regular Elementary or Secondary", "low_grade": "Prekindergarten", "high_grade": "5th grade", "affiliation": "2-Other religious", "religious": "Baptist", "zip": 30349.0, "zip4": 1914.0, "total_students": 30, "grades_1_8": 10, "grades_9_12": 0, "prekg_qty": 6, "kg_qty": 8, "ungraded_qty": 6, "indian_alaska_qty": 0, "asian_qty": 0, "hispanic_qty": 0, "black_qty": 24, "white_qty": 0, "hawaiian_qty": 0, "twoormore_races_qty": "0" }, "geometry": { "type": "Point", "coordinates": [ -84.534475, 33.690529 ] } },
{ "type": "Feature", "properties": { "school_id": "A9901505", "school_name": "LIGHT OF THE WORLD OF ATLANTA", "state": "GEORGIA", "state_code": 13, "city": "ATLANTA", "address": "542 MORELAND AVE SE", "school_type": "1-Regular Elementary or Secondary", "low_grade": "Kindergarten", "high_grade": "12th grade  ", "affiliation": "2-Other religious", "religious": "Christian (no specific denomination)", "zip": 30316.0, "zip4": 1927.0, "total_students": 49, "grades_1_8": 36, "grades_9_12": 10, "prekg_qty": 0, "kg_qty": 3, "ungraded_qty": 0, "indian_alaska_qty": 0, "asian_qty": 0, "hispanic_qty": 0, "black_qty": 46, "white_qty": 0, "hawaiian_qty": 0, "twoormore_races_qty": "3" }, "geometry": { "type": "Point", "coordinates": [ -84.348611, 33.73962 ] } },
{ "type": "Feature", "properties": { "school_id": "A0700749", "school_name": "MONTESSORI IN TOWN", "state": "GEORGIA", "state_code": 13, "city": "ATLANTA", "address": "678 MORELAND AVE NE", "school_type": "2-Montessori", "low_grade": "Prekindergarten", "high_grade": "5th grade", "affiliation": "3-Nonsectarian", "religious": "Nonsectarian", "zip": 30306.0, "zip4": 4582.0, "total_students": 123, "grades_1_8": 28, "grades_9_12": 0, "prekg_qty": 12, "kg_qty": 83, "ungraded_qty": 0, "indian_alaska_qty": 0, "asian_qty": 6, "hispanic_qty": 8, "black_qty": 17, "white_qty": 75, "hawaiian_qty": 0, "twoormore_races_qty": "5" }, "geometry": { "type": "Point", "coordinates": [ -84.351761, 33.77306 ] } },
{ "type": "Feature", "properties": { "school_id": "00297237", "school_name": "PAIDEIA SCHOOL", "state": "GEORGIA", "state_code": 13, "city": "ATLANTA", "address": "1509 PONCE DE LEON AVE NE", "school_type": "1-Regular Elementary or Secondary", "low_grade": "Prekindergarten", "high_grade": "12th grade  ", "affiliation": "3-Nonsectarian", "religious": "Nonsectarian", "zip": 30307.0, "zip4": 1666.0, "total_students": 1008, "grades_1_8": 502, "grades_9_12": 443, "prekg_qty": 33, "kg_qty": 30, "ungraded_qty": 0, "indian_alaska_qty": 0, "asian_qty": 0, "hispanic_qty": 0, "black_qty": 0, "white_qty": 0, "hawaiian_qty": 0, "twoormore_races_qty": "–" }, "geometry": { "type": "Point", "coordinates": [ -84.336691, 33.77295 ] } },
{ "type": "Feature", "properties": { "school_id": "A1301135", "school_name": "PEACHTREE ROAD LUTHERAN PRESCHOOL", "state": "GEORGIA", "state_code": 13, "city": "ATLANTA", "address": "3686 PEACHTREE RD NE", "school_type": "7-Early Childhood Program\/child care center", "low_grade": "Prekindergarten", "high_grade": "Kindergarten", "affiliation": "2-Other religious", "religious": "Evangelical Lutheran Church in America (formerly AELC or ALC or LCA)", "zip": 30319.0, "zip4": 1214.0, "total_students": 34, "grades_1_8": 0, "grades_9_12": 0, "prekg_qty": 24, "kg_qty": 10, "ungraded_qty": 0, "indian_alaska_qty": 0, "asian_qty": 0, "hispanic_qty": 0, "black_qty": 0, "white_qty": 9, "hawaiian_qty": 0, "twoormore_races_qty": "1" }, "geometry": { "type": "Point", "coordinates": [ -84.354211, 33.85553 ] } },
{ "type": "Feature", "properties": { "school_id": "A9300322", "school_name": "SOUTHWEST ATLANTA CHRISTIAN ACADEMY", "state": "GEORGIA", "state_code": 13, "city": "ATLANTA", "address": "3911 CAMPBELLTON RD", "school_type": "1-Regular Elementary or Secondary", "low_grade": "Prekindergarten", "high_grade": "12th grade  ", "affiliation": "2-Other religious", "religious": "Christian (no specific denomination)", "zip": 33031.0, "zip4": 750.0, "total_students": 91, "grades_1_8": 46, "grades_9_12": 35, "prekg_qty": 8, "kg_qty": 2, "ungraded_qty": 0, "indian_alaska_qty": 0, "asian_qty": 4, "hispanic_qty": 0, "black_qty": 74, "white_qty": 2, "hawaiian_qty": 0, "twoormore_races_qty": "3" }, "geometry": { "type": "Point", "coordinates": [ -84.516301, 33.6933 ] } },
{ "type": "Feature", "properties": { "school_id": "A1501449", "school_name": "ST ANNE'S DAY SCHOOL", "state": "GEORGIA", "state_code": 13, "city": "ATLANTA", "address": "3098 SAINT ANNES LN NW", "school_type": "7-Early Childhood Program\/child care center", "low_grade": "Kindergarten", "high_grade": "Kindergarten", "affiliation": "2-Other religious", "religious": "Episcopal", "zip": 30327.0, "zip4": 1638.0, "total_students": 17, "grades_1_8": 0, "grades_9_12": 0, "prekg_qty": 0, "kg_qty": 17, "ungraded_qty": 0, "indian_alaska_qty": 0, "asian_qty": 0, "hispanic_qty": 0, "black_qty": 0, "white_qty": 17, "hawaiian_qty": 0, "twoormore_races_qty": "0" }, "geometry": { "type": "Point", "coordinates": [ -84.418821, 33.8393 ] } },
{ "type": "Feature", "properties": { "school_id": "A0700765", "school_name": "ST NICHOLAS ORTHODOX ACADEMY", "state": "GEORGIA", "state_code": 13, "city": "ATLANTA", "address": "543 CHEROKEE AVE SE", "school_type": "1-Regular Elementary or Secondary", "low_grade": "1st grade", "high_grade": "12th grade  ", "affiliation": "2-Other religious", "religious": "Other", "zip": 30312.0, "zip4": 3248.0, "total_students": 14, "grades_1_8": 12, "grades_9_12": 2, "prekg_qty": 0, "kg_qty": 0, "ungraded_qty": 0, "indian_alaska_qty": 0, "asian_qty": 0, "hispanic_qty": 3, "black_qty": 2, "white_qty": 9, "hawaiian_qty": 0, "twoormore_races_qty": "0" }, "geometry": { "type": "Point", "coordinates": [ -84.373618, 33.740062 ] } },
{ "type": "Feature", "properties": { "school_id": "A1301111", "school_name": "TAMU S. KANYAMA PREP ACADEMY", "state": "GEORGIA", "state_code": 13, "city": "ATLANTA", "address": "967 DEWEY ST", "school_type": "1-Regular Elementary or Secondary", "low_grade": "9th grade", "high_grade": "11th grade  ", "affiliation": "3-Nonsectarian", "religious": "Nonsectarian", "zip": 30310.0, "zip4": null, "total_students": 12, "grades_1_8": 0, "grades_9_12": 12, "prekg_qty": 0, "kg_qty": 0, "ungraded_qty": 0, "indian_alaska_qty": 0, "asian_qty": 0, "hispanic_qty": 1, "black_qty": 9, "white_qty": 0, "hawaiian_qty": 0, "twoormore_races_qty": "2" }, "geometry": { "type": "Point", "coordinates": [ -84.406993, 33.728571 ] } },
{ "type": "Feature", "properties": { "school_id": "K9301823", "school_name": "THE CATHEDRAL PRESCHOOL", "state": "GEORGIA", "state_code": 13, "city": "ATLANTA", "address": "2744 PEACHTREE RD NW", "school_type": "7-Early Childhood Program\/child care center", "low_grade": "Prekindergarten", "high_grade": "Transitional Kindergarten", "affiliation": "2-Other religious", "religious": "Episcopal", "zip": 30305.0, "zip4": 2920.0, "total_students": 200, "grades_1_8": 0, "grades_9_12": 0, "prekg_qty": 181, "kg_qty": 19, "ungraded_qty": 0, "indian_alaska_qty": 0, "asian_qty": 0, "hispanic_qty": 0, "black_qty": 0, "white_qty": 19, "hawaiian_qty": 0, "twoormore_races_qty": "0" }, "geometry": { "type": "Point", "coordinates": [ -84.386761, 33.83145 ] } },
{ "type": "Feature", "properties": { "school_id": "AA000273", "school_name": "THE CHILDRENS SCHOOL", "state": "GEORGIA", "state_code": 13, "city": "ATLANTA", "address": "345 10TH ST NE", "school_type": "1-Regular Elementary or Secondary", "low_grade": "Prekindergarten", "high_grade": "7th grade", "affiliation": "3-Nonsectarian", "religious": "Nonsectarian", "zip": 30309.0, "zip4": null, "total_students": 375, "grades_1_8": 277, "grades_9_12": 0, "prekg_qty": 55, "kg_qty": 43, "ungraded_qty": 0, "indian_alaska_qty": 0, "asian_qty": 13, "hispanic_qty": 8, "black_qty": 95, "white_qty": 170, "hawaiian_qty": 0, "twoormore_races_qty": "34" }, "geometry": { "type": "Point", "coordinates": [ -84.376001, 33.78142 ] } },
{ "type": "Feature", "properties": { "school_id": "00298387", "school_name": "THE GALLOWAY SCHOOL", "state": "GEORGIA", "state_code": 13, "city": "ATLANTA", "address": "215 W WIEUCA RD NW", "school_type": "1-Regular Elementary or Secondary", "low_grade": "Prekindergarten", "high_grade": "12th grade  ", "affiliation": "3-Nonsectarian", "religious": "Nonsectarian", "zip": 30342.0, "zip4": null, "total_students": 753, "grades_1_8": 400, "grades_9_12": 286, "prekg_qty": 35, "kg_qty": 32, "ungraded_qty": 0, "indian_alaska_qty": 0, "asian_qty": 33, "hispanic_qty": 9, "black_qty": 55, "white_qty": 598, "hawaiian_qty": 0, "twoormore_races_qty": "23" }, "geometry": { "type": "Point", "coordinates": [ -84.393731, 33.8752 ] } },
{ "type": "Feature", "properties": { "school_id": "A1501331", "school_name": "THE HOWARD SCHOOL", "state": "GEORGIA", "state_code": 13, "city": "ATLANTA", "address": "1192 FOSTER ST NW", "school_type": "4-Special Education", "low_grade": "Kindergarten", "high_grade": "12th grade  ", "affiliation": "3-Nonsectarian", "religious": "Nonsectarian", "zip": 30318.0, "zip4": null, "total_students": 259, "grades_1_8": 179, "grades_9_12": 76, "prekg_qty": 0, "kg_qty": 4, "ungraded_qty": 0, "indian_alaska_qty": 0, "asian_qty": 9, "hispanic_qty": 11, "black_qty": 39, "white_qty": 190, "hawaiian_qty": 1, "twoormore_races_qty": "9" }, "geometry": { "type": "Point", "coordinates": [ -84.417661, 33.78689 ] } },
{ "type": "Feature", "properties": { "school_id": "00298398", "school_name": "THE HOWARD SCHOOL", "state": "GEORGIA", "state_code": 13, "city": "ATLANTA", "address": "1192 FOSTER ST NW", "school_type": "4-Special Education", "low_grade": "8th grade ", "high_grade": "12th grade  ", "affiliation": "3-Nonsectarian", "religious": "Nonsectarian", "zip": 30318.0, "zip4": 4329.0, "total_students": 269, "grades_1_8": 36, "grades_9_12": 76, "prekg_qty": 0, "kg_qty": 0, "ungraded_qty": 157, "indian_alaska_qty": 0, "asian_qty": 8, "hispanic_qty": 11, "black_qty": 41, "white_qty": 195, "hawaiian_qty": 1, "twoormore_races_qty": "13" }, "geometry": { "type": "Point", "coordinates": [ -84.417661, 33.78689 ] } },
{ "type": "Feature", "properties": { "school_id": "01646675", "school_name": "THE LOVETT SCHOOL", "state": "GEORGIA", "state_code": 13, "city": "ATLANTA", "address": "4075 PACES FERRY RD NW", "school_type": "1-Regular Elementary or Secondary", "low_grade": "Kindergarten", "high_grade": "12th grade  ", "affiliation": "2-Other religious", "religious": "African Methodist Episcopal", "zip": 30327.0, "zip4": null, "total_students": 1671, "grades_1_8": 921, "grades_9_12": 664, "prekg_qty": 0, "kg_qty": 86, "ungraded_qty": 0, "indian_alaska_qty": 2, "asian_qty": 118, "hispanic_qty": 39, "black_qty": 124, "white_qty": 1314, "hawaiian_qty": 3, "twoormore_races_qty": "71" }, "geometry": { "type": "Point", "coordinates": [ -84.450031, 33.86002 ] } },
{ "type": "Feature", "properties": { "school_id": "BB160891", "school_name": "THE NEW SCHOOL", "state": "GEORGIA", "state_code": 13, "city": "ATLANTA", "address": "655 MEMORIAL DR SE", "school_type": "1-Regular Elementary or Secondary", "low_grade": "9th grade", "high_grade": "12th grade  ", "affiliation": "3-Nonsectarian", "religious": "Nonsectarian", "zip": 30312.0, "zip4": null, "total_students": 76, "grades_1_8": 0, "grades_9_12": 76, "prekg_qty": 0, "kg_qty": 0, "ungraded_qty": 0, "indian_alaska_qty": 0, "asian_qty": 2, "hispanic_qty": 4, "black_qty": 13, "white_qty": 54, "hawaiian_qty": 0, "twoormore_races_qty": "3" }, "geometry": { "type": "Point", "coordinates": [ -84.354463, 33.756514 ] } },
{ "type": "Feature", "properties": { "school_id": "A0901367", "school_name": "THE RON CLARK ACADEMY", "state": "GEORGIA", "state_code": 13, "city": "ATLANTA", "address": "228 MARGARET ST SE", "school_type": "3-Special Program Emphasis", "low_grade": "5th grade", "high_grade": "8th grade ", "affiliation": "3-Nonsectarian", "religious": "Nonsectarian", "zip": 30315.0, "zip4": null, "total_students": 120, "grades_1_8": 120, "grades_9_12": 0, "prekg_qty": 0, "kg_qty": 0, "ungraded_qty": 0, "indian_alaska_qty": 0, "asian_qty": 1, "hispanic_qty": 1, "black_qty": 107, "white_qty": 5, "hawaiian_qty": 0, "twoormore_races_qty": "6" }, "geometry": { "type": "Point", "coordinates": [ -84.381241, 33.71218 ] } },
{ "type": "Feature", "properties": { "school_id": "00297328", "school_name": "THE WESTMINSTER SCHOOLS", "state": "GEORGIA", "state_code": 13, "city": "ATLANTA", "address": "1424 W PACES FERRY RD NW", "school_type": "3-Special Program Emphasis", "low_grade": "Kindergarten", "high_grade": "12th grade  ", "affiliation": "2-Other religious", "religious": "Christian (no specific denomination)", "zip": 30327.0, "zip4": 2428.0, "total_students": 1873, "grades_1_8": 967, "grades_9_12": 828, "prekg_qty": 0, "kg_qty": 78, "ungraded_qty": 0, "indian_alaska_qty": 3, "asian_qty": 246, "hispanic_qty": 90, "black_qty": 171, "white_qty": 1254, "hawaiian_qty": 0, "twoormore_races_qty": "109" }, "geometry": { "type": "Point", "coordinates": [ -84.435321, 33.84595 ] } },
{ "type": "Feature", "properties": { "school_id": "A9102248", "school_name": "TRINITY SCHOOL", "state": "GEORGIA", "state_code": 13, "city": "ATLANTA", "address": "4301 NORTHSIDE PKWY NW", "school_type": "1-Regular Elementary or Secondary", "low_grade": "Prekindergarten", "high_grade": "6th grade", "affiliation": "2-Other religious", "religious": "African Methodist Episcopal", "zip": 30327.0, "zip4": 3014.0, "total_students": 603, "grades_1_8": 436, "grades_9_12": 0, "prekg_qty": 93, "kg_qty": 74, "ungraded_qty": 0, "indian_alaska_qty": 0, "asian_qty": 33, "hispanic_qty": 7, "black_qty": 60, "white_qty": 383, "hawaiian_qty": 0, "twoormore_races_qty": "27" }, "geometry": { "type": "Point", "coordinates": [ -84.448223, 33.864194 ] } }
]
}
