{
"type": "FeatureCollection",
"crs": { "type": "name", "properties": { "name": "urn:ogc:def:crs:OGC:1.3:CRS84" } },
"features": [
{ "type": "Feature", "properties": { "fid": 1911, "uniqueid": "45747501", "ipedsid": "457475", "name": "THE PROCESS INSTITUTE OF COSMETOLOGY - BUCKHEAD CAMPUS", "address": "3344 PEACHTREE RD STE 200", "city": "ATLANTA", "state": "GA", "zip": "30326", "zip4": "NOT AVAILABLE", "telephone": "(404) 274-5485", "type": "3", "status": "A", "population": -999, "county": "FULTON", "countyfips": "13121", "country": "USA", "latitude": 33.84695028200008, "longitude": -84.368572149999977, "naics_code": "611511", "naics_desc": "COSMETOLOGY AND BARBER SCHOOLS", "source": "http:\/\/www.keuneacademyby124.edu\/cosmetology-schools\/", "sourcedate": "2015-11-23", "val_method": "IMAGERY\/OTHER", "val_date": "2015-11-23", "website": "http:\/\/www.keuneacademyby124.edu\/hair-school-buckhead-atlanta-ga\/", "tot_enroll": 0, "tot_emp": -999, "shelterid": "NOT AVAILABLE" }, "geometry": { "type": "Point", "coordinates": [ -84.368572150057844, 33.846950281934859 ] } },
{ "type": "Feature", "properties": { "fid": 2220, "uniqueid": "14095101", "ipedsid": "140951", "name": "SAVANNAH COLLEGE OF ART AND DESIGN - ATLANTA", "address": "1600 PEACHTREE ST", "city": "ATLANTA", "state": "GA", "zip": "30309", "zip4": "NOT AVAILABLE", "telephone": "(877) 722-3285", "type": "2", "status": "A", "population": -999, "county": "FULTON", "countyfips": "13121", "country": "USA", "latitude": 33.796986822000065, "longitude": -84.3907782, "naics_code": "611310", "naics_desc": "COLLEGES, UNIVERSITIES, AND PROFESSIONAL SCHOOLS", "source": "http:\/\/www.scad.edu\/locations\/atlanta", "sourcedate": "2016-07-26", "val_method": "IMAGERY\/OTHER", "val_date": "2016-07-26", "website": "http:\/\/www.scad.edu\/locations\/atlanta", "tot_enroll": 0, "tot_emp": -999, "shelterid": "NOT AVAILABLE" }, "geometry": { "type": "Point", "coordinates": [ -84.390778200250708, 33.796986822035542 ] } }
]
}
